Place,Sex,Name,CyrillicName,BodyweightKg,Squat1Kg,Squat2Kg,Squat3Kg,Squat4Kg,Best3SquatKg,Bench1Kg,Bench2Kg,Bench3Kg,Bench4Kg,Best3BenchKg,Deadlift1Kg,Deadlift2Kg,Deadlift3Kg,Deadlift4Kg,Best3DeadliftKg,TotalKg,WeightClassKg,Event,Equipment,Tested,Division,Age,BirthDate
1,F,Aleksandra Kulikova,Александра Куликова,66,95,105,107.5,,107.5,70,75,77.5,,77.5,135,140,-145,,140,325,67.5,SBD,Wraps,Yes,Amateur Girls,19,1998-05-21
DQ,M,Konstantin Semikov,Константин Семиков,88.7,-135,-140,-150,,,,,,,,,,,,,,90,SBD,Wraps,Yes,Amateur Juniors,21,1996-05-07
1,M,Aleksandr Solntsev,Александр Солнцев,109.4,-160,160,-180,,160,110,120,-127.5,,120,200,210,220,,220,500,110,SBD,Wraps,Yes,Amateur Open,37,1980-10-31
1,F,Natalya Tozhina,Наталья Тожина,57.6,60,70,-75,,70,40,-45,-45,,40,70,80,90,,90,200,60,SBD,Wraps,No,Pro Girls,19,1999-03-04
1,M,Mikhail Nelyutskov,Михаил Нелюцков,70.6,120,130,-135,,130,-75,82.5,85,,85,180,-185,185,,185,400,75,SBD,Wraps,No,Pro Teen 17-19,18,2000-01-25
DQ,M,Anton Markin,Антон Маркин,79.2,-170,170,-180,,170,-130,-130,-130,,,,,,,,,82.5,SBD,Wraps,No,Pro Open,25,1992-06-30
1,M,Aleksandr Ermolaev,Александр Ермолаев,88.2,220,,,,220,170,,,,170,275,,,,275,665,90,SBD,Wraps,No,Pro Open,31,1987-04-04
1,M,Daniil Kharitonov,Даниил Харитонов,96,-140,-140,140,,140,-110,110,-120,,110,140,160,-170,,160,410,100,SBD,Wraps,No,Pro Teen 17-19,18,1999-08-05
1,M,Maksim Bogachev,Максим Богачев,99,190,200,210,,210,-142.5,142.5,147.5,,147.5,235,245,250,,250,607.5,100,SBD,Wraps,No,Pro Juniors,23,1994-10-26
1,M,Konstantin Semikov,Константин Семиков,88.7,,,,,,110,,,,110,180,,,,180,290,90,BD,Raw,Yes,Amateur Juniors,21,1996-05-07
1,M,Stanislav Sysoev,Станислав Сысоев,98,,,,,,130,140,145,,145,230,250,-270,,250,395,100,BD,Raw,Yes,Amateur Open,28,1990-01-02
1,M,Ibragim Borotov,Ибрагим Боротов,64.7,,,,,,-85,87.5,-95,,87.5,,,,,,87.5,67.5,B,Raw,Yes,Amateur Teen 17-19,19,1999-03-02
1,M,Egor Gusev,Егор Гусев,64.5,,,,,,100,-107.5,107.5,-112.5,107.5,,,,,,107.5,67.5,B,Raw,Yes,Amateur Juniors,21,1996-06-12
1,M,Igor Maloletnev,Игорь Малолетнев,73,,,,,,110,117.5,122.5,,122.5,,,,,,122.5,75,B,Raw,Yes,Amateur Juniors,21,1996-08-22
1,M,Aleksandr Malko,Александр Малько,71.7,,,,,,125,-135,-135,,125,,,,,,125,75,B,Raw,Yes,Amateur Open,29,1988-04-18
2,M,Aleksandr Kondrakov,Александр Кондраков,74.7,,,,,,125,-135,-135,,125,,,,,,125,75,B,Raw,Yes,Amateur Open,39,1979-01-12
1,M,Aleksandr Saulkin,Александр Саулькин,82,,,,,,150,155,-160,,155,,,,,,155,82.5,B,Raw,Yes,Amateur Open,28,1989-10-12
2,M,Vladimir Vladimirov,Владимир Владимиров,78.1,,,,,,145,150,-155,-155,150,,,,,,150,82.5,B,Raw,Yes,Amateur Open,24,1993-04-30
3,M,Andrey Saraykin,Андрей Сарайкин,75.4,,,,,,110,120,127.5,,127.5,,,,,,127.5,82.5,B,Raw,Yes,Amateur Open,33,1984-06-02
1,M,Damir Tuishev,Дамир Туишев,87.6,,,,,,125,132.5,-137.5,,132.5,,,,,,132.5,90,B,Raw,Yes,Amateur Teen 17-19,18,1999-06-10
1,M,Aleksandr Arapov,Александр Арапов,87.7,,,,,,140,152.5,-157.5,,152.5,,,,,,152.5,90,B,Raw,Yes,Amateur Open,30,1987-04-15
2,M,Vasiliy Arkhipov,Василий Архипов,89,,,,,,145,-152.5,152.5,,152.5,,,,,,152.5,90,B,Raw,Yes,Amateur Open,26,1991-05-25
3,M,Aleksandr Kochetkov,Александр Кочетков,89,,,,,,132.5,137.5,-140,,137.5,,,,,,137.5,90,B,Raw,Yes,Amateur Open,30,1988-03-19
1,M,Yaroslav Gorban,Ярослав Горбань,97.5,,,,,,-150,162.5,-170,,162.5,,,,,,162.5,100,B,Raw,Yes,Amateur Open,24,1993-12-08
2,M,Maksim Ruchkov,Максим Ручков,99,,,,,,155,-165,-165,,155,,,,,,155,100,B,Raw,Yes,Amateur Open,37,1980-12-16
3,M,Stanislav Sysoev,Станислав Сысоев,98,,,,,,130,140,145,,145,,,,,,145,100,B,Raw,Yes,Amateur Open,28,1990-01-02
1,M,Igor Malov,Игорь Малов,98.2,,,,,,150,162.5,-165,,162.5,,,,,,162.5,100,B,Raw,Yes,Amateur Masters 40-49,47,1971-02-20
1,M,Pavel Kondratev,Павел Кондратьев,108,,,,,,175,185,-190,,185,,,,,,185,110,B,Raw,Yes,Amateur Open,28,1989-09-20
1,M,Mikhail Zotkin,Михаил Зоткин,110.9,,,,,,125,-132.5,132.5,,132.5,,,,,,132.5,125,B,Raw,Yes,Amateur Open,33,1985-02-14
1,M,Yuriy Drachev,Юрий Драчёв,138,,,,,,-175,175,182.5,,182.5,,,,,,182.5,140,B,Raw,Yes,Amateur Masters 40-49,41,1976-12-13
1,M,Valeriya Mishina,Валерия Мишина,54.1,,,,,,40,-45,-45,,40,,,,,,40,56,B,Raw,No,Pro Girls,17,2001-02-03
1,M,Aleksey Volskiy,Алексей Вольский,58.1,,,,,,-80,-80,80,,80,,,,,,80,60,B,Raw,No,Pro Teen 14-16,13,2004-08-07
1,M,Dmitriy Efremov,Дмитрий Ефремов,64.3,,,,,,-90,97.5,-100,,97.5,,,,,,97.5,67.5,B,Raw,No,Pro Teen 17-19,18,1999-05-12
1,M,Sergey Agapov,Сергей Агапов,65.4,,,,,,-155,155,-160,,155,,,,,,155,67.5,B,Raw,No,Pro Open,29,1988-11-17
1,M,Igor Tikhonov,Игорь Тихонов,74,,,,,,105,-107.5,-107.5,,105,,,,,,105,75,B,Raw,No,Pro Teen 14-16,16,2001-05-30
1,M,Anton Shurupov,Антон Шурупов,71.4,,,,,,110,115,-120,,115,,,,,,115,75,B,Raw,No,Pro Juniors,20,1998-01-23
1,M,Sergey Agafonov,Сергей Агафонов,74,,,,,,-145,-145,145,,145,,,,,,145,75,B,Raw,No,Pro Open,28,1990-01-06
1,M,Vladislav Sovlachkov,Владислав Совлачков,76.7,,,,,,125,130,-135,,130,,,,,,130,82.5,B,Raw,No,Pro Teen 17-19,19,1998-06-29
2,M,Kirill Tokarev,Кирилл Токарев,80.5,,,,,,-110,-110,110,-120,110,,,,,,110,82.5,B,Raw,No,Pro Teen 17-19,17,2000-07-16
1,M,Vladislav Kologorov,Владислав Кологоров,81,,,,,,120,125,-130,,125,,,,,,125,82.5,B,Raw,No,Pro Juniors,22,1995-12-01
1,M,Sergey Kirpichev,Сергей Кирпичев,82.1,,,,,,105,110,-120,,110,,,,,,110,82.5,B,Raw,No,Pro Masters 40-49,40,1977-08-09
1,M,Gennadiy Andreev,Геннадий Андреев,82.7,,,,,,155,-162.5,,,155,,,,,,155,90,B,Raw,No,Pro Open,29,1989-04-01
1,M,Artur Manukyan,Артур Манукян,99.2,,,,,,-172.5,172.5,-177.5,,172.5,,,,,,172.5,100,B,Raw,No,Pro Open,26,1992-04-05
2,M,Anton Mishin,Антон Мишин,98.3,,,,,,-120,130,-160,,130,,,,,,130,100,B,Raw,No,Pro Open,36,1981-07-02
1,M,Vladimir Sanfirov,Владимир Санфиров,98.9,,,,,,-180,180,-185,,180,,,,,,180,100,B,Raw,No,Pro Masters 40-49,43,1974-08-30
DQ,M,Valeriy Teryokhin,Валерий Терёхин,98.5,,,,,,-175,-175,-175,,,,,,,,,100,B,Raw,No,Pro Masters 40-49,44,1974-02-07
1,M,Sergey Razudalov,Сергей Разудалов,104.4,,,,,,230,,,,230,,,,,,230,110,B,Raw,No,Pro Open,27,1990-06-11
1,M,Andrey Yudin,Андрей Юдин,106.5,,,,,,-150,150,157.5,,157.5,,,,,,157.5,110,B,Raw,No,Pro Masters 40-49,46,1971-08-04
1,M,Aleksandr Komarov,Александр Комаров,112.2,,,,,,197.5,205,215,,215,,,,,,215,125,B,Raw,No,Pro Open,29,1989-01-25
1,M,Gleb Morozov,Глеб Морозов,116.1,,,,,,160,-167.5,,,160,,,,,,160,125,B,Raw,No,Pro Masters 40-49,44,1973-04-23
1,M,Vladislav Shalin,Владислав Шалин,137.5,,,,,,-150,150,-152.5,,150,,,,,,150,140,B,Raw,No,Pro Teen 17-19,19,1999-01-08
1,M,Roman Zemlyakov,Роман Земляков,139,,,,,,220,-225,225,,225,,,,,,225,140,B,Raw,No,Pro Open,29,1988-08-24
1,M,Nikita Dyomin,Никита Дёмин,109,,,,,,220,230,242.5,,242.5,,,,,,242.5,110,B,Multi-ply,Yes,Amateur Open,32,1985-04-13
1,M,Vladislav Shalin,Владислав Шалин,137.5,,,,,,-170,180,-200,,180,,,,,,180,140,B,Multi-ply,No,Pro Teen 13-19,19,1999-01-08
1,F,Anastasiya Marina,Анастасия Марина,55,,,,,,,,,,,120,125,-130,,125,125,56,D,Raw,Yes,Amateur Girls 14-16,17,2000-12-31
1,F,Aleksandra Kulikova,Александра Куликова,66.2,,,,,,,,,,,140,,,,140,140,67.5,D,Raw,Yes,Amateur Girls,19,1998-05-21
1,M,Maksim Mamaev,Максим Мамаев,73.3,,,,,,,,,,,160,175,-190,,175,175,75,D,Raw,Yes,Amateur Open,33,1984-11-08
1,M,German Polev,Герман Полев,87,,,,,,,,,,,202.5,207.5,212.5,,212.5,212.5,90,D,Raw,Yes,Amateur Teen 17-19,19,1999-01-31
1,M,Stanislav Sysoev,Станислав Сысоев,98,,,,,,,,,,,230,250,-270,,250,250,100,D,Raw,Yes,Amateur Open,28,1990-01-02
1,F,Olga Oskina,Ольга Оськина,78.2,,,,,,,,,,,130,-140,,,130,130,82.5,D,Raw,No,Pro Open,29,1988-12-10
1,M,Anton Shurupov,Антон Шурупов,71.4,,,,,,,,,,,180,190,-200,,190,190,75,D,Raw,No,Pro Juniors,20,1998-01-23
1,M,Anton Markin,Антон Маркин,79.2,,,,,,,,,,,230,,,,230,230,82.5,D,Raw,No,Pro Open,25,1992-06-30
1,M,Evgeniy Yasnov,Евгений Яснов,103,,,,,,,,,,,280,300,310,,310,310,110,D,Raw,No,Pro Open,25,1993-02-23
1,M,Anton Markin,Антон Маркин,79.2,,,,,,,,,,,230,,,,230,230,82.5,D,Raw,No,Pro Open,25,1992-06-30
