Division,WeightClassKg,Place,Name,Team,BodyweightKg,Best3SquatKg,Best3BenchKg,Best3DeadliftKg,TotalKg,Equipment,Event,Sex
Boys,52,1,Jonathan Cardenas,Freeport Brazosport,51.62,163.29,95.25,165.56,424.11,Single-ply,SBD,M
Boys,52,2,Raymond Garza,Clute Brazoswood,51.35,136.08,74.84,142.88,353.8,Single-ply,SBD,M
Boys,52,3,Steve Melgar,Hitchcock,44.81,136.08,65.77,140.61,342.46,Single-ply,SBD,M
Boys,52,4,Jaylynn Mitchell,Crosby,51.62,104.33,72.57,111.13,288.03,Single-ply,SBD,M
Boys,52,5,Dylan Deulschlander,Clute Brazoswood,47.36,90.72,45.36,97.52,233.6,Single-ply,SBD,M
Boys,52,6,Gage Franklin,Friendswood Clear Brook,50.98,90.72,45.36,90.72,226.8,Single-ply,SBD,M
Boys,52,DQ,Tru'Darryian Andrus,Port Arthur Memorial,,,,,,Single-ply,SBD,M
Boys,52,DQ,Ra Garza,Clute Brazoswood,,,,,,Single-ply,SBD,M
Boys,52,DQ,Royshon Godley,Texas City,,,,,,Single-ply,SBD,M
Boys,56,1,Jaycob Warchesik,Manvel,54.7,151.95,79.38,165.56,396.89,Single-ply,SBD,M
Boys,56,2,Angel Medrano,Manvel,54.88,131.54,88.45,145.15,365.14,Single-ply,SBD,M
Boys,56,3,Wyatt Dudley,Santa Fe,53.52,115.67,56.7,129.27,301.64,Single-ply,SBD,M
Boys,56,DQ,David Bentancur,Sweeny,,,,,,Single-ply,SBD,M
Boys,60,1,Dominique Johnson,Beaumont West Brook,59.15,140.61,83.91,161.03,385.55,Single-ply,SBD,M
Boys,60,2,Clay Frick,Sweeny,59.69,129.27,63.5,142.88,335.66,Single-ply,SBD,M
Boys,60,3,Phong Nguyen,Clute Brazoswood,59.24,124.74,63.5,136.08,324.32,Single-ply,SBD,M
Boys,60,4,Ryan Levy,Beaumont West Brook,57.79,113.4,65.77,142.88,322.05,Single-ply,SBD,M
Boys,60,5,Devin West,Clute Brazoswood,58.33,129.27,56.7,133.81,319.78,Single-ply,SBD,M
Boys,60,6,Juan Mendoza,Freeport Brazosport,57.79,104.33,70.31,136.08,310.71,Single-ply,SBD,M
Boys,60,DQ,Joshua Whaling,Danbury,,,,,,Single-ply,SBD,M
Boys,67.5,1,Cameron Guillen,Clute Brazoswood,64.14,190.51,97.52,197.31,485.34,Single-ply,SBD,M
Boys,67.5,2,Charles Bell,Beaumont West Brook,64.41,163.29,104.33,185.97,453.59,Single-ply,SBD,M
Boys,67.5,3,Tyvarian Lane,Stafford,62.32,170.1,108.86,161.03,439.98,Single-ply,SBD,M
Boys,67.5,4,Jacory Joseph,Freeport Brazosport,65.14,183.7,92.99,161.03,437.72,Single-ply,SBD,M
Boys,67.5,5,Malik Griffin,Crosby,67.13,181.44,90.72,158.76,430.91,Single-ply,SBD,M
Boys,67.5,6,Jermaine Ellis,Freeport Brazosport,64.32,158.76,88.45,170.1,417.3,Single-ply,SBD,M
Boys,67.5,7,Kieth Chesson,Manvel,64.86,158.76,95.25,158.76,412.77,Single-ply,SBD,M
Boys,67.5,9,Michael Grossman,Santa Fe,62.6,149.69,74.84,142.88,367.41,Single-ply,SBD,M
Boys,67.5,10,O. Garcia,Texas City,66.77,127.01,83.91,149.69,360.61,Single-ply,SBD,M
Boys,67.5,11,Daniel Cantu,Clute Brazoswood,65.32,124.74,68.04,145.15,337.93,Single-ply,SBD,M
Boys,67.5,12,Brett Jackson,Beaumont West Brook,65.86,92.99,49.9,129.27,272.16,Single-ply,SBD,M
Boys,67.5,DQ,Ricky Hampton,Hitchcock,,,,,,Single-ply,SBD,M
Boys,67.5,DQ,Kyle Bottoms,Texas City,,,,,,Single-ply,SBD,M
Boys,75,1,James Jones,Beaumont West Brook,74.84,197.31,117.93,192.78,508.02,Single-ply,SBD,M
Boys,75,2,Dylon Sefcik,Sweeny,73.48,181.44,113.4,195.04,489.88,Single-ply,SBD,M
Boys,75,3,Devante Stafford,Freeport Brazosport,73.48,185.97,115.67,179.17,480.81,Single-ply,SBD,M
Boys,75,4,Yuki Namae,Manvel,73.57,179.17,117.93,176.9,474,Single-ply,SBD,M
Boys,75,5,Randy Williams,Hitchcock,73.03,192.78,97.52,181.44,471.74,Single-ply,SBD,M
Boys,75,6,Zack Nieto,Freeport Brazosport,72.85,174.63,104.33,190.51,469.47,Single-ply,SBD,M
Boys,75,7,Alfredo Arenas,Manvel,72.85,174.63,92.99,170.1,437.72,Single-ply,SBD,M
Boys,75,8,Keegan Richardson,Manvel,67.31,136.08,86.18,154.22,376.48,Single-ply,SBD,M
Boys,75,8,Evan Kukuk,Santa Fe,74.39,181.44,92.99,158.76,433.18,Single-ply,SBD,M
Boys,75,9,Evan Eversole,Danbury,73.21,158.76,77.11,161.03,396.89,Single-ply,SBD,M
Boys,75,10,Zach Brooks,Stafford,70.76,136.08,95.25,158.76,390.09,Single-ply,SBD,M
Boys,75,11,Braxton Davis,Clute Brazoswood,67.22,113.4,61.23,108.86,283.5,Single-ply,SBD,M
Boys,75,12,Josh Green,Friendswood Clear Brook,73.94,108.86,,131.54,240.4,Single-ply,SD,M
Boys,75,DQ,Odis Mack,Port Arthur Memorial,,,,,,Single-ply,SBD,M
Boys,75,DQ,Jaren Victor,Manvel,72.21,124.74,,,,Single-ply,SBD,M
Boys,75,DQ,Fabian Peoples,Freeport Brazosport,68.58,149.69,72.57,,,Single-ply,SBD,M
Boys,75,DQ,Cory Griffith,Crosby,68.58,102.06,,,,Single-ply,SBD,M
Boys,75,DQ,Nick Bell,Texas City,72.67,,,,,Single-ply,SBD,M
Boys,82.5,1,Kolbi Foster,Sweeny,77.93,217.72,92.99,217.72,528.44,Single-ply,SBD,M
Boys,82.5,2,Laurencio Madrigal,Freeport Brazosport,78.93,192.78,104.33,217.72,514.83,Single-ply,SBD,M
Boys,82.5,3,Adrian Aluiso,Freeport Brazosport,81.37,185.97,102.06,197.31,485.34,Single-ply,SBD,M
Boys,82.5,4,Gary Carter,Crosby,81.01,176.9,111.13,192.78,480.81,Single-ply,SBD,M
Boys,82.5,5,Dalton Reichardt,Friendswood Clear Brook,76.38,185.97,99.79,192.78,478.54,Single-ply,SBD,M
Boys,82.5,6,Cedric Lee,Port Arthur Memorial,80.29,179.17,113.4,185.97,478.54,Single-ply,SBD,M
Boys,82.5,7,Justin Daffin,Beaumont West Brook,76.11,174.63,97.52,199.58,471.74,Single-ply,SBD,M
Boys,82.5,8,Bennet Ruby,Friendswood Clear Brook,77.84,181.44,86.18,163.29,430.91,Single-ply,SBD,M
Boys,82.5,DQ,Elezar Pena,Hitchcock,,,,,,Single-ply,SBD,M
Boys,82.5,DQ,Malik Willer,Sweeny,,,,,,Single-ply,SBD,M
Boys,82.5,DQ,JD Laughlin,Sweeny,,,,,,Single-ply,SBD,M
Boys,82.5,DQ,Steve Reyes,Freeport Brazosport,,,,,,Single-ply,SBD,M
Boys,82.5,DQ,Carlos Frank,Texas City,,,,,,Single-ply,SBD,M
Boys,82.5,DQ,Lance Cole,Crosby,80.92,,,,,Single-ply,SBD,M
Boys,82.5,DQ,Ethan Beck,Danbury,,,,,,Single-ply,SBD,M
Boys,82.5,DQ,Lexy Alexander,Clute Brazoswood,78.74,,,,,Single-ply,SBD,M
Boys,82.5,DQ,John Michael Wilson,Santa Fe,80.92,,,,,Single-ply,SBD,M
Boys,82.5,DQ,Dane Rendon,Hitchcock,79.65,190.51,,,,Single-ply,SBD,M
Boys,90,1,Travis Anderson,Crosby,89.45,272.16,170.1,256.28,698.53,Single-ply,SBD,M
Boys,90,2,Stephen Rowe,Friendswood Clear Brook,88.09,204.12,120.2,226.8,551.11,Single-ply,SBD,M
Boys,90,3,Jorge Ochoa,Beaumont West Brook,88.45,213.19,129.27,206.38,548.85,Single-ply,SBD,M
Boys,90,4,Isaac Guinn,Friendswood Clear Brook,87.27,204.12,117.93,181.44,503.49,Single-ply,SBD,M
Boys,90,5,Brandon Diaz,Crosby,88.63,181.44,113.4,197.31,492.15,Single-ply,SBD,M
Boys,90,6,Alejandro Hernandez,Beaumont West Brook,87,183.7,120.2,183.7,487.61,Single-ply,SBD,M
Boys,90,7,Trey Heckendorn,Clute Brazoswood,88.18,181.44,97.52,176.9,455.86,Single-ply,SBD,M
Boys,90,8,Travis Hyman,Crosby,86.73,142.88,106.59,174.63,424.11,Single-ply,SBD,M
Boys,90,9,Brady Byrd,Sweeny,86.82,158.76,83.91,181.44,424.11,Single-ply,SBD,M
Boys,90,10,Reggie Riggins,Freeport Brazosport,87.82,140.61,111.13,165.56,417.3,Single-ply,SBD,M
Boys,90,11,Gage Slaughter,Santa Fe,87.63,140.61,83.91,154.22,378.75,Single-ply,SBD,M
Boys,90,12,Zane West,Danbury,88.36,142.88,77.11,158.76,378.75,Single-ply,SBD,M
Boys,90,DQ,Michael McVay,Santa Fe,,,,,,Single-ply,SBD,M
Boys,90,DQ,Adre Smith,Hitchcock,,,,,,Single-ply,SBD,M
Boys,90,DQ,Anthony Gonzalez,Hitchcock,,,,,,Single-ply,SBD,M
Boys,90,DQ,Jake Allison,Friendswood Clear Brook,85.82,,,,,Single-ply,SBD,M
Boys,90,DQ,London Harris,Manvel,,,,,,Single-ply,SBD,M
Boys,90,DQ,Ethan George,Stafford,88.45,,,,,Single-ply,SBD,M
Boys,90,DQ,Kenneth Savanah,Stafford,,,,,,Single-ply,SBD,M
Boys,90,DQ,Kyle Garrett,Beaumont West Brook,,,,,,Single-ply,SBD,M
Boys,90,DQ,Zack Smith,Texas City,86.18,142.88,,,,Single-ply,SBD,M
Boys,100,1,Danny Marquez,Freeport Brazosport,96.25,204.12,149.69,208.65,562.45,Single-ply,SBD,M
Boys,100,2,James Mower,Friendswood Clear Brook,98.07,217.72,113.4,217.72,548.85,Single-ply,SBD,M
Boys,100,3,Hunter Thiem,Hitchcock,94.35,208.65,129.27,188.24,526.17,Single-ply,SBD,M
Boys,100,4,Mykel Thomas,Port Arthur Memorial,99.61,199.58,120.2,204.12,523.9,Single-ply,SBD,M
Boys,100,5,Presley Viltz,Port Arthur Memorial,93.89,197.31,115.67,206.38,519.36,Single-ply,SBD,M
Boys,100,6,Brent Smith,Hitchcock,95.53,206.38,115.67,195.04,517.1,Single-ply,SBD,M
Boys,100,7,Elfonso Muniz-Vargas,Clute Brazoswood,97.16,190.51,124.74,192.78,508.02,Single-ply,SBD,M
Boys,100,8,Evander Williams,Beaumont West Brook,97.43,204.12,95.25,197.31,496.68,Single-ply,SBD,M
Boys,100,9,Tyler Ray,Santa Fe,94.8,192.78,106.59,185.97,485.34,Single-ply,SBD,M
Boys,100,10,Parker Dean,Sweeny,95.8,190.51,92.99,185.97,469.47,Single-ply,SBD,M
Boys,100,11,John Gutierrez,Hitchcock,91.08,174.63,108.86,183.7,467.2,Single-ply,SBD,M
Boys,100,12,Xavier Ramsey,Stafford,95.07,149.69,113.4,195.04,458.13,Single-ply,SBD,M
Boys,100,13,Sam Romero,Sweeny,94.98,172.37,115.67,158.76,446.79,Single-ply,SBD,M
Boys,100,14,Christian Valdez,Danbury,95.44,158.76,92.99,165.56,417.3,Single-ply,SBD,M
Boys,100,15,Travis Anderson,Crosby,98.43,158.76,129.27,,288.03,Single-ply,SB,M
Boys,100,DQ,Rayvion Oliver-Haynes,Texas City,,,,,,Single-ply,SBD,M
Boys,100,DQ,Mathew Richardson,Hitchcock,,,,,,Single-ply,SBD,M
Boys,100,DQ,John Reinheart,Texas City,,,,,,Single-ply,SBD,M
Boys,100,DQ,Charles Nichols,Clute Brazoswood,,,,,,Single-ply,SBD,M
Boys,110,1,Xavian Hampton,Hitchcock,105.51,263.08,124.74,244.94,632.76,Single-ply,SBD,M
Boys,110,2,Joseph Mayfield,Stafford,108.95,217.72,147.42,192.78,557.92,Single-ply,SBD,M
Boys,110,3,David Williams #4,Stafford,104.6,204.12,122.47,197.31,523.9,Single-ply,SBD,M
Boys,110,4,Tyler Danford,Clute Brazoswood,106.96,238.14,90.72,192.78,521.63,Single-ply,SBD,M
Boys,110,5,Alandrus Peterson,Clute Brazoswood,108.23,183.7,104.33,188.24,476.27,Single-ply,SBD,M
Boys,110,6,Tyler Puffer,Friendswood Clear Brook,101.24,170.1,83.91,181.44,435.45,Single-ply,SBD,M
Boys,110,7,Christian Shores,Danbury,102.51,145.15,88.45,133.81,367.41,Single-ply,SBD,M
Boys,110,8,Ryan Ferguson,Sweeny,106.68,131.54,83.91,136.08,351.53,Single-ply,SBD,M
Boys,110,9,Jared Mancuso,Hitchcock,107.5,192.78,99.79,,292.57,Single-ply,SB,M
Boys,110,DQ,Richard Lewis,Friendswood Clear Brook,,,,,,Single-ply,SBD,M
Boys,110,DQ,Zane Ortiz,Texas City,,,,,,Single-ply,SBD,M
Boys,110,DQ,Dustin Powell,Santa Fe,,,,,,Single-ply,SBD,M
Boys,110,DQ,Robert Torres,Texas City,,,,,,Single-ply,SBD,M
Boys,110,DQ,Braydon Williams,Port Arthur Memorial,104.24,,,,,Single-ply,SBD,M
Boys,125,1,Dante Hayes,Texas City,123.47,254.01,151.95,244.94,650.91,Single-ply,SBD,M
Boys,125,2,Kyler Gentry,Santa Fe,122.74,249.48,158.76,226.8,635.03,Single-ply,SBD,M
Boys,125,3,Cameron Townsend,Friendswood Clear Brook,112.31,240.4,136.08,222.26,598.74,Single-ply,SBD,M
Boys,125,4,Antonio Williams,Freeport Brazosport,119.66,215.46,129.27,229.06,573.79,Single-ply,SBD,M
Boys,125,5,Andrew Cassity,Friendswood Clear Brook,121.02,213.19,95.25,242.67,551.11,Single-ply,SBD,M
Boys,125,6,Victor Esquivel,Clute Brazoswood,120.75,206.38,124.74,204.12,535.24,Single-ply,SBD,M
Boys,125,7,Eric Reid,Stafford,121.2,172.37,163.29,188.24,523.9,Single-ply,SBD,M
Boys,125,8,Eric Mendoza,Friendswood Clear Brook,116.12,181.44,81.65,163.29,426.38,Single-ply,SBD,M
Boys,125,9,Cameron Balinski,Crosby,118.12,158.76,83.91,151.95,394.63,Single-ply,SBD,M
Boys,125,10,Santos Lazos,Clute Brazoswood,122.11,233.6,136.08,,369.68,Single-ply,SB,M
Boys,125,11,Gilberto Chavez,Freeport Brazosport,121.93,199.58,106.59,,306.17,Single-ply,SB,M
Boys,125,12,Paul Guevara,Clute Brazoswood,115.85,226.8,,,226.8,Single-ply,S,M
Boys,125,13,Michael Johnson,Danbury,112.04,151.95,,,151.95,Single-ply,S,M
Boys,125,DQ,Victor Guevara,Freeport Brazosport,120.02,294.84,,,,Single-ply,SBD,M
Boys,125,DQ,Gustavo Cruz,Hitchcock,,,,,,Single-ply,SBD,M
Boys,125,DQ,Luke Brooks,Clute Brazoswood,,,,,,Single-ply,SBD,M
Boys,125+,1,Brandon Jackson,Port Arthur Memorial,132.45,299.37,165.56,258.55,723.48,Single-ply,SBD,M
Boys,125+,2,Brandon Artis,Port Arthur Memorial,142.34,274.42,158.76,258.55,691.73,Single-ply,SBD,M
Boys,125+,3,Luis Barron,Danbury,127.73,251.74,149.69,244.94,646.37,Single-ply,SBD,M
Boys,125+,4,Michael Willer,Sweeny,127.01,283.5,133.81,224.53,641.83,Single-ply,SBD,M
Boys,125+,5,Keenan Murphy,Crosby,134.63,249.48,140.61,242.67,632.76,Single-ply,SBD,M
Boys,125+,6,Alfred Beverly,Beaumont West Brook,167.1,263.08,147.42,219.99,630.49,Single-ply,SBD,M
Boys,125+,7,Moses Horn,Stafford,136.08,249.48,136.08,204.12,589.67,Single-ply,SBD,M
Boys,125+,8,Jonathan Woods,Sweeny,157.94,222.26,136.08,176.9,535.24,Single-ply,SBD,M
Boys,125+,9,Lane Morris,Santa Fe,128.19,204.12,104.33,183.7,492.15,Single-ply,SBD,M
Boys,125+,10,Parker Frasier,Danbury,130.27,158.76,97.52,163.29,419.57,Single-ply,SBD,M
Boys,125+,DQ,Chandler Wasson,Sweeny,,,,,,Single-ply,SBD,M
