﻿16.09.2018;GPC World Championship-Kg Results - RAW SQUAT;;;;;;;;;;;;;;
Name;Age;Div;BWt (Kg);WtCls (Kg);Reshel; Squat  1; Squat  2; Squat  3; Squat  4;Best Squat;Coeff Score;Age  & Coeff;Pl-Div-WtCl;Team;
ROHRMANN Katalin;65;FM6;82,1;82,5;1,4782;90;95;-100;;95;140,429;207,83492;1-FM6-82,5;HUNGARY;
AMITAY Ariela;53;FM3;56,5;60;1,887;-107,5;107,5;-120;;107,5;202,8525;240,17736;1-FM3-60;ISRAEL;
HORLYCK Stephanie Kim;52;FM3;98,1;SHW;1,3726;120;130;-140;;130;178,438;207,88027;1-FM3-SHW;AUSTRALIA;
MOLNÁRNÉ FERKEL Katalin;47;FM2;55,8;56;1,9122;-95;95;-110;;95;181,659;196,555038;1-FM2-56;HUNGARY;
ILLYÉS Edit;46;FM2;74,8;75;1,5454;-130;-130;-130;;0;0;0;0;HUNGARY;
BAZSÓ Mónika;44;FM1;72,3;75;1,5764;157,5;165;172,5;;172,5;271,929;283,621947;1-FM1-75;HUNGARY;
ALMAGRABI Roukaya;35;FO;72,9;75;1,5684;-105;105;112,5;;112,5;176,445;176,445;1-FO-75;ISRAEL;
BORDÁS Dorina;19;FT3;71,7;75;1,5836;80;90;-100;;90;142,524;148,22496;1-FT3-75;HUNGARY;
BRODETSKA Olha;19;FT3;70,4;75;1,5994;50;-70;-70;;50;79,97;83,1688;2-FT3-75;UKRAINE;
GABRIEL Jozef;62;MM5;72,1;75;1,1604;130;140;150;;150;174,06;242,46558;1-MM5-75;SLOVAK REPUBLIC;
SOLC Jaroslav;61;MM5;97;100;0,927;180;190;-200;;190;176,13;240,59358;1-MM5-100;SLOVAK REPUBLIC;
SIPOS Tibor;53;MM4;78,8;82,5;1,0684;140;150;160;;160;170,944;202,397696;1-MM4-82,5;HUNGARY;
HERÁK Peter;57;MM4;89,6;90;0,9712;230;245;-252,5;;245;237,944;301,712992;1-MM4-90;SLOVAK REPUBLIC;
PENKERT Richard;55;MM4;108,3;110;0,889;252,5;-265;265;;265;235,585;288,591625;1-MM4-110;IRELAND;
WITKOWSKI Janusz;58;MM4;108,6;110;0,8886;185;-202,5;-202,5;;185;164,391;212,228781;2-MM4-110;POLAND;
BOREIKO Valery;53;MM3;73,4;75;1,1406;170;175;-180;;175;199,605;236,33232;1-MM3-75;ISRAEL;
TOMILOV Valery;53;MM3;99,2;100;0,9182;230;247,5;250;;250;229,55;271,7872;1-MM3-100;ISRAEL;
PARDO Favio Ariel;50;MM3;95,2;100;0,9354;210;225;-247,5;;225;210,465;237,82545;2-MM3-100;ARGENTINA;
NÉMETH Zoltán;51;MM3;96,8;100;0,9278;175;205;215;;215;199,477;228,800119;3-MM3-100;HUNGARY;
SERFŐZŐ Béla;54;MM3;99,1;100;0,9186;-170;-170;-170;;0;0;0;0;HUNGARY;
HAAVISTO Billy;53;MM3;108,3;110;0,889;245;0;0;;245;217,805;257,88112;1-MM3-110;FINLAND;
MANZERA Tibor;50;MM3;103,7;110;0,9022;100;115;0;;115;103,753;117,24089;2-MM3-110;HUNGARY;
BOGNÁR István;46;MM2;107,8;110;0,89;230;245;0;;245;218,05;232,8774;1-MM2-110;HUNGARY;
COUVERCELLE Bertrand;41;MM1;82;82,5;1,034;187,5;200;-210;;200;206,8;208,868;1-MM1-82,5;FRANCE;
OLÁH Lajos;43;MM1;97;100;0,927;240;250;260;;260;241,02;248,49162;1-MM1-100;HUNGARY;
Drewniany Grzegorz;41;MM1;97,6;100;0,9246;225;235;-245;;235;217,281;219,45381;2-MM1-100;POLAND;
Kolodzej Martin;44;MM1;107;110;0,892;205;-217,5;217,5;;217,5;194,01;202,35243;1-MM1-110;SLOVAK REPUBLIC;
BRUDNYÁK Tamás;43;MM1;100,4;110;0,9134;200;215;-217,5;;215;196,381;202,468811;2-MM1-110;HUNGARY;
MAZAC Jozef;42;MM1;135,5;140;0,845;280;-300;-300;;280;236,6;241,332;1-MM1-140;CZECH REPUBLIC;
KARALYOS Tibor;44;MM1;131,2;140;0,85;250;-280;0;;250;212,5;221,6375;2-MM1-140;HUNGARY;
KASSA Szabolcs;33;MO;67,1;67,5;1,2444;150;165;175;;175;217,77;217,77;1-MO-67,5;HUNGARY;
CSIKÓS Gábor;30;MO;80,9;82,5;1,0448;140;170;-180;;170;177,616;177,616;1-MO-82,5;HUNGARY;
VOKAL Adam;25;MO;84,8;90;1,0076;200;220;0;;220;221,672;221,672;1-MO-90;CZECH REPUBLIC;
CZENTYE Péter;29;MO;94;100;0,942;-300;300;312,5;;312,5;294,375;294,375;1-MO-100;HUNGARY;
PIELA Wojciech Arkadiusz;24;MO;98,2;100;0,9222;280;295;305;;305;281,271;281,271;2-MO-100;POLAND;
HOTLASHOV Dmytro;33;MO;108,2;110;0,8892;280;300;305;;305;271,206;271,206;1-MO-110;UKRAINE;
MANSILLA Cesar Emilio;34;MO;110;110;0,885;-280;285;-302,5;;285;252,225;252,225;2-MO-110;ARGENTINA;
KOVÁCS Krisztián;36;MO;114,7;125;0,873;-150;150;0;;150;130,95;130,95;1-MO-125;HUNGARY;
GAJ Piotr;24;MO;125,3;140;0,857;265;-275;-275;;265;227,105;227,105;1-MO-140;POLAND;
YARMOLATII Paulo;20;MJ;80,8;82,5;1,0456;175;-190;190;;190;198,664;204,62392;1-MJ-82,5;UKRAINE;
MEZŐ Áron Benjamin;21;MJ;86,6;90;0,9932;170;-200;-210;;170;168,844;172,22088;1-MJ-90;HUNGARY;
CARRIPILON Mirko;23;MJ;97,6;100;0,9246;-240;-240;240;;240;221,904;221,904;1-MJ-100;ARGENTINA;
HOUGH Sean;21;MJ;103;110;0,904;-220;240;260;;260;235,04;239,741;1-MJ-110;IRELAND;
GÁLEG Norbert;22;MJ;104,1;110;0,9006;-260;-260;-260;;0;0;0;0;HUNGARY;
BOKROS Juraj;19;MT3;91,1;100;0,9606;-210;220;-225;;220;211,332;219,78528;1-MT3-100;SLOVAK REPUBLIC;
SZARKA Balázs;18;MT3;102,7;110;0,9052;-110;-120;120;;120;108,624;115,14144;1-MT3-110;HUNGARY;
KIRÁLY Gábor;16;MT2;106,2;110;0,8942;205;210;215;220;215;192,253;217,24589;1-MT2-110;HUNGARY;