Division,WeightClassKg,Place,Name,Team,BodyweightKg,Best3SquatKg,Best3BenchKg,Best3DeadliftKg,TotalKg,Equipment,Event,Sex
Boys,52,1,Ethan Stack,Scurry-Rosser,51.17,115.67,70.31,131.54,317.51,Single-ply,SBD,M
Boys,52,2,Jose Lopez,Kaufman,45.72,102.06,63.5,106.59,272.16,Single-ply,SBD,M
Boys,52,3,Austin Caldwell,Wills Point,49.26,95.25,54.43,104.33,254.01,Single-ply,SBD,M
Boys,52,4,Kyron Cobb,Wills Point,39.28,56.7,27.22,65.77,149.69,Single-ply,SBD,M
Boys,56,2,Rigo Herrera,Van,55.52,90.72,68.04,113.4,272.16,Single-ply,SBD,M
Boys,56,3,Luis Ortiz,Wills Point,54.88,79.38,52.16,92.99,224.53,Single-ply,SBD,M
Boys,56,DQ,Chad Collup,Scurry-Rosser,54.25,,,,,Single-ply,SBD,M
Boys,60,1,Morgan Rhew,Sunnyvale,55.97,115.67,72.57,136.08,324.32,Single-ply,SBD,M
Boys,60,1,Isaiah Payne,Crandall,59.15,183.7,99.79,206.38,489.88,Single-ply,SBD,M
Boys,60,2,Arturo Jimenez,Ferris,59.15,167.83,90.72,163.29,421.84,Single-ply,SBD,M
Boys,60,3,Tristian Castillo,Eustace,57.15,142.88,86.18,147.42,376.48,Single-ply,SBD,M
Boys,60,4,Josh Gorospe,Sunnyvale,58.97,131.54,63.5,161.03,356.07,Single-ply,SBD,M
Boys,60,5,Kaden McKinney,Van,57.97,104.33,54.43,136.08,294.84,Single-ply,SBD,M
Boys,60,6,Kyle Brett,Crandall,58.6,111.13,54.43,127.01,292.57,Single-ply,SBD,M
Boys,67.5,1,Luke Elkins,Corsicana,63.32,190.51,104.33,181.44,476.27,Single-ply,SBD,M
Boys,67.5,2,Clay Conway,Mabank,65.05,183.7,92.99,161.03,437.72,Single-ply,SBD,M
Boys,67.5,3,Jose Garcia,Terrell,65.32,154.22,102.06,161.03,417.3,Single-ply,SBD,M
Boys,67.5,4,Keun Mays,Terrell,66.04,136.08,95.25,181.44,412.77,Single-ply,SBD,M
Boys,67.5,5,Joshua Hughes,Eustace,67.13,138.35,113.4,151.95,403.7,Single-ply,SBD,M
Boys,67.5,6,Trevor Harrell,Wills Point,62.23,131.54,90.72,149.69,371.95,Single-ply,SBD,M
Boys,67.5,7,Christian Garcia,Emory Rains,65.68,136.08,74.84,158.76,369.68,Single-ply,SBD,M
Boys,67.5,8,Matthew Parker,Scurry-Rosser,66.59,113.4,61.23,102.06,276.69,Single-ply,SBD,M
Boys,67.5,9,Nathan Ihle,Terrell,67.13,83.91,65.77,95.25,244.94,Single-ply,SBD,M
Boys,67.5,DQ,Shushan Bradley,Wills Point,60.06,79.38,,,,Single-ply,SBD,M
Boys,67.5,DQ,David Umana,Wills Point,59.96,,,,,Single-ply,SBD,M
Boys,67.5,DQ,Brady Manning,Mabank,67.13,,,,,Single-ply,SBD,M
Boys,75,1,Justin Griffin,Eustace,72.39,219.99,124.74,208.65,553.38,Single-ply,SBD,M
Boys,75,2,Jacori Chandler,Corsicana,74.84,192.78,99.79,226.8,519.36,Single-ply,SBD,M
Boys,75,3,Quentin Parks,Eustace,74.12,197.31,117.93,197.31,512.56,Single-ply,SBD,M
Boys,75,4,Jacob McLean,Scurry-Rosser,72.76,206.38,115.67,183.7,505.76,Single-ply,SBD,M
Boys,75,5,Jax Tobias,Van,73.94,172.37,108.86,195.04,476.27,Single-ply,SBD,M
Boys,75,6,Jon Ennin,Sunnyvale,70.76,170.1,86.18,201.85,458.13,Single-ply,SBD,M
Boys,75,7,Jarrick Lusk,Corsicana,73.21,167.83,90.72,172.37,430.91,Single-ply,SBD,M
Boys,75,8,Marcos Gallegos,Mabank,67.22,145.15,95.25,158.76,399.16,Single-ply,SBD,M
Boys,75,9,Seth Massheder,Terrell,74.03,113.4,81.65,154.22,349.27,Single-ply,SBD,M
Boys,75,10,Terry Richardson,Eustace,72.67,124.74,70.31,151.95,347,Single-ply,SBD,M
Boys,75,DQ,Jagger Johnson,Forney,67.31,136.08,,,,Single-ply,SBD,M
Boys,82.5,1,Keenan Hargest,Eustace,79.74,208.65,127.01,219.99,555.65,Single-ply,SBD,M
Boys,82.5,2,Lamontra Owens,Corsicana,81.92,201.85,117.93,199.58,519.36,Single-ply,SBD,M
Boys,82.5,3,Cody Coldwell,Sunnyvale,76.38,213.19,115.67,183.7,512.56,Single-ply,SBD,M
Boys,82.5,4,Denver Jackson,Corsicana,81.74,197.31,122.47,181.44,501.22,Single-ply,SBD,M
Boys,82.5,5,Joel Ennin,Sunnyvale,79.83,181.44,97.52,215.46,494.42,Single-ply,SBD,M
Boys,82.5,6,Jacob Profitt,Mabank,81.01,181.44,102.06,185.97,469.47,Single-ply,SBD,M
Boys,82.5,7,Josh Hull,Wills Point,81.28,165.56,111.13,192.78,469.47,Single-ply,SBD,M
Boys,82.5,9,Adam Kirk,Scurry-Rosser,76.66,147.42,83.91,161.03,392.36,Single-ply,SBD,M
Boys,82.5,10,Issac Baldivia,Eustace,80.92,142.88,77.11,151.95,371.95,Single-ply,SBD,M
Boys,82.5,11,Jason Gonzalez,Ferris,79.83,122.47,74.84,161.03,358.34,Single-ply,SBD,M
Boys,82.5,12,Noel Vasquez,Ferris,75.75,120.2,68.04,142.88,331.12,Single-ply,SBD,M
Boys,82.5,13,Kyle Kelly,Scurry-Rosser,80.47,115.67,58.97,136.08,310.71,Single-ply,SBD,M
Boys,90,1,Zane Koskelin,Mabank,87.91,244.94,151.95,226.8,623.69,Single-ply,SBD,M
Boys,90,2,Xavier Hughey,Crandall,86.64,226.8,117.93,208.65,553.38,Single-ply,SBD,M
Boys,90,3,Michael Schultz,Eustace,88.54,188.24,106.59,199.58,494.42,Single-ply,SBD,M
Boys,90,4,Juan Garcia,Eustace,88.72,188.24,102.06,199.58,489.88,Single-ply,SBD,M
Boys,90,5,Christain Hoover,Forney,89.45,190.51,120.2,179.17,489.88,Single-ply,SBD,M
Boys,90,6,Victor Quevedo,Eustace,86.45,176.9,104.33,201.85,483.08,Single-ply,SBD,M
Boys,90,7,Rodney Wells,Terrell,85.55,174.63,97.52,174.63,446.79,Single-ply,SBD,M
Boys,90,8,Xavier Robertson,Eustace,87.09,142.88,102.06,170.1,415.04,Single-ply,SBD,M
Boys,90,8,Jhovvany SanJuan,Kaufman,82.28,142.88,106.59,195.04,444.52,Single-ply,SBD,M
Boys,90,9,Kenneth Randall,Kaufman,85.73,142.88,79.38,181.44,403.7,Single-ply,SBD,M
Boys,90,10,Justin Holifield,Ferris,86.73,140.61,99.79,161.03,401.43,Single-ply,SBD,M
Boys,90,11,Jacob Resnick,Wills Point,84.46,129.27,97.52,165.56,392.36,Single-ply,SBD,M
Boys,90,12,Cameron Tate,Forney,88.18,154.22,79.38,154.22,387.82,Single-ply,SBD,M
Boys,90,13,Ethan Kelly,Crandall,85.09,151.95,70.31,161.03,383.29,Single-ply,SBD,M
Boys,90,14,Alejandro Montenegro,Terrell,84.01,140.61,77.11,151.95,369.68,Single-ply,SBD,M
Boys,90,15,Garrett Griffin,Eustace,86.91,142.88,79.38,131.54,353.8,Single-ply,SBD,M
Boys,90,16,Joshua Rank,Ferris,85.73,124.74,70.31,147.42,342.46,Single-ply,SBD,M
Boys,90,17,Kadon Farmer,Eustace,86.64,120.2,83.91,129.27,333.39,Single-ply,SBD,M
Boys,100,1,Eli Britt,Emory Rains,92.35,244.94,136.08,217.72,598.74,Single-ply,SBD,M
Boys,100,2,Trent Mills,Crandall,93.26,197.31,136.08,208.65,542.04,Single-ply,SBD,M
Boys,100,3,Christian Lemus,Van,97.89,195.04,149.69,181.44,526.17,Single-ply,SBD,M
Boys,100,4,Dalan Clowdus,Mabank,93.53,158.76,115.67,190.51,464.93,Single-ply,SBD,M
Boys,100,5,Drew Coleman,Forney,94.8,181.44,106.59,172.37,460.4,Single-ply,SBD,M
Boys,100,6,Dustin Wallace,Emory Rains,92.26,131.54,79.38,154.22,365.14,Single-ply,SBD,M
Boys,100,7,Gabriel Suniga,Forney,98.97,111.13,72.57,136.08,319.78,Single-ply,SBD,M
Boys,100,DQ,Jason White,Emory Rains,98.61,,,,,Single-ply,SBD,M
Boys,100,DQ,Caleb Johnson,Corsicana,92.17,183.7,,,,Single-ply,SBD,M
Boys,100,DQ,Micah Wafer,Corsicana,90.99,174.63,,,,Single-ply,SBD,M
Boys,110,1,Caleb York,Van,109.13,204.12,140.61,192.78,537.51,Single-ply,SBD,M
Boys,110,2,Jimmy Landess,Scurry-Rosser,102.51,206.38,108.86,217.72,532.97,Single-ply,SBD,M
Boys,110,3,JP Sales,Sunnyvale,106.96,222.26,97.52,210.92,530.7,Single-ply,SBD,M
Boys,110,4,Corey Mullican,Kaufman,107.41,213.19,102.06,199.58,514.83,Single-ply,SBD,M
Boys,110,5,Brandon Pierce,Mabank,103.96,183.7,117.93,195.04,496.68,Single-ply,SBD,M
Boys,110,6,Seth White,Corsicana,101.51,195.04,111.13,170.1,476.27,Single-ply,SBD,M
Boys,110,7,Gage Graham,Mabank,109.59,183.7,127.01,165.56,476.27,Single-ply,SBD,M
Boys,110,8,Brandon Villalpando,Kaufman,107.23,163.29,81.65,156.49,401.43,Single-ply,SBD,M
Boys,110,9,Leo Figueroa,Ferris,101.79,154.22,88.45,131.54,374.21,Single-ply,SBD,M
Boys,110,10,Christian Williams #3,Scurry-Rosser,108.14,129.27,70.31,124.74,324.32,Single-ply,SBD,M
Boys,125,1,Leal Sample,Scurry-Rosser,121.2,256.28,208.65,263.08,728.02,Single-ply,SBD,M
Boys,125,2,Noel Rojo,Mabank,118.39,233.6,124.74,208.65,566.99,Single-ply,SBD,M
Boys,125,3,DeAunte Thomas,Corsicana,112.49,217.72,124.74,208.65,551.11,Single-ply,SBD,M
Boys,125,4,Jarred Norman,Wills Point,120.29,204.12,115.67,204.12,523.9,Single-ply,SBD,M
Boys,125,5,Ethan Huff,Crandall,111.22,210.92,117.93,181.44,510.29,Single-ply,SBD,M
Boys,125,6,Daltin Long,Mabank,119.93,190.51,117.93,158.76,467.2,Single-ply,SBD,M
Boys,125,7,Cesar Gomez,Corsicana,118.84,172.37,106.59,163.29,442.25,Single-ply,SBD,M
Boys,125,8,Bryce Stavinoha,Scurry-Rosser,124.01,156.49,106.59,165.56,428.64,Single-ply,SBD,M
Boys,125,9,Chris Palmer,Scurry-Rosser,111.58,170.1,97.52,156.49,424.11,Single-ply,SBD,M
Boys,125,10,Richard Worthington,Scurry-Rosser,112.13,154.22,72.57,149.69,376.48,Single-ply,SBD,M
Boys,125,11,Nathan Manuene,Corsicana,114.21,195.04,136.08,,331.12,Single-ply,SB,M
Boys,125,12,Morgan Wallace,Forney,116.3,174.63,70.31,,244.94,Single-ply,SB,M
Boys,125,DQ,Jacoby Paul,Terrell,113.76,260.82,,,,Single-ply,SBD,M
Boys,125,DQ,Isaiah Reyes,Ferris,110.22,,,,,Single-ply,SBD,M
Boys,125+,1,Eric Roberts,Terrell,136.62,294.84,181.44,238.14,714.41,Single-ply,SBD,M
Boys,125+,2,Jiovanny Rubio,Sunnyvale,138.8,231.33,131.54,217.72,580.6,Single-ply,SBD,M
Boys,125+,3,Jonathan Amaro,Wills Point,131.36,244.94,133.81,199.58,578.33,Single-ply,SBD,M
Boys,125+,4,Kevin Turner,Mabank,141.25,249.48,136.08,174.63,560.19,Single-ply,SBD,M
Boys,125+,5,Deonte Martin,Corsicana,135.44,208.65,117.93,199.58,526.17,Single-ply,SBD,M
Boys,125+,6,Julio Fontao,Corsicana,135.99,204.12,111.13,181.44,496.68,Single-ply,SBD,M
Boys,125+,7,Wade Cookston,Sunnyvale,141.25,308.44,181.44,,489.88,Single-ply,SB,M
Boys,125+,8,Braydon Jones,Wills Point,133.36,201.85,95.25,174.63,471.74,Single-ply,SBD,M
Boys,125+,DQ,Jordan Young,Van,137.62,163.29,,,,Single-ply,SBD,M
Boys,125+,DQ,Preston Burke,Sunnyvale,136.62,195.04,,,,Single-ply,SBD,M
Boys,125+,DQ,Juan Gomez,Ferris,138.98,,,,,Single-ply,SBD,M
