Division,WeightClassKg,Place,Name,Team,BodyweightKg,Best3SquatKg,Best3BenchKg,Best3DeadliftKg,TotalKg,Equipment,Event,Sex
Boys,52,1,Patrick Toy,Azle,51.44,83.91,45.36,70.31,199.58,Single-ply,SBD,M
Boys,56,1,Arlind Quierman,White Settlement Brewer,54.93,127.01,72.57,136.08,335.66,Single-ply,SBD,M
Boys,56,2,Artavion Harrell,Azle,55.79,127.01,58.97,124.74,310.71,Single-ply,SBD,M
Boys,60,1,Tin Nguyen,Weatherford,59.47,140.61,70.31,138.35,349.27,Single-ply,SBD,M
Boys,60,2,Colton Bear,White Settlement Brewer,58.65,122.47,72.57,120.2,315.25,Single-ply,SBD,M
Boys,67.5,1,Hayden Ekas,Weatherford,66.13,165.56,83.91,174.63,424.11,Single-ply,SBD,M
Boys,67.5,2,Grant Brown,Weatherford,63.55,142.88,92.99,156.49,392.36,Single-ply,SBD,M
Boys,67.5,3,Gavin Coffee,Azle,65.86,145.15,86.18,151.95,383.29,Single-ply,SBD,M
Boys,67.5,4,Cole Williams,Azle,65.41,136.08,70.31,154.22,360.61,Single-ply,SBD,M
Boys,67.5,5,Cain Paff,White Settlement Brewer,66.72,120.2,81.65,142.88,344.73,Single-ply,SBD,M
Boys,75,1,Jordan McNeely,Azle,71.03,174.63,108.86,181.44,464.93,Single-ply,SBD,M
Boys,75,2,Mavirick Boyle,Weatherford,72.21,183.7,83.91,185.97,453.59,Single-ply,SBD,M
Boys,75,3,Riley Fuller,White Settlement Brewer,74.3,124.74,83.91,140.61,349.27,Single-ply,SBD,M
Boys,75,4,Carson Ingram,White Settlement Brewer,71.3,136.08,65.77,136.08,337.93,Single-ply,SBD,M
Boys,82.5,1,Justin Livingston,Weatherford,81.65,201.85,90.72,217.72,510.29,Single-ply,SBD,M
Boys,82.5,2,Bryce Miller,White Settlement Brewer,82.01,179.17,115.67,190.51,485.34,Single-ply,SBD,M
Boys,82.5,3,Christian Cato,White Settlement Brewer,81.74,201.85,104.33,172.37,478.54,Single-ply,SBD,M
Boys,82.5,4,Sam Rogers,Azle,81.87,188.24,106.59,170.1,464.93,Single-ply,SBD,M
Boys,82.5,5,Ryan Carper,Weatherford,77.84,158.76,106.59,176.9,442.25,Single-ply,SBD,M
Boys,82.5,6,Alex Kemp,White Settlement Brewer,77.02,154.22,99.79,163.29,417.3,Single-ply,SBD,M
Boys,82.5,7,Zade Smith,Azle,79.79,151.95,86.18,174.63,412.77,Single-ply,SBD,M
Boys,82.5,8,Rickey Aregullin,Azle,81.56,158.76,102.06,151.95,412.77,Single-ply,SBD,M
Boys,82.5,9,Seth Ortega,Azle,81.65,163.29,86.18,154.22,403.7,Single-ply,SBD,M
Boys,82.5,10,Gamble Moore,Azle,78.74,149.69,83.91,165.56,399.16,Single-ply,SBD,M
Boys,82.5,11,Andrew McNay,Weatherford,78.97,142.88,,174.63,317.51,Single-ply,SD,M
Boys,82.5,12,Winston Griffith,Weatherford,79.11,165.56,92.99,,258.55,Single-ply,SB,M
Boys,90,1,Braden Robertson,Weatherford,83.05,208.65,131.54,213.19,553.38,Single-ply,SBD,M
Boys,90,2,Jequan Brownlee,Weatherford,89.72,176.9,131.54,226.8,535.24,Single-ply,SBD,M
Boys,90,3,Blake Raines,White Settlement Brewer,89.49,195.04,142.88,183.7,521.63,Single-ply,SBD,M
Boys,90,4,Kameron Shields,White Settlement Brewer,86.55,204.12,120.2,192.78,517.1,Single-ply,SBD,M
Boys,90,5,Daniel Crossley,White Settlement Brewer,88.5,188.24,124.74,185.97,498.95,Single-ply,SBD,M
Boys,90,6,Davion Jones,Azle,89.63,204.12,113.4,181.44,498.95,Single-ply,SBD,M
Boys,90,7,Tim Parker #2,Weatherford,84.82,158.76,95.25,181.44,435.45,Single-ply,SBD,M
Boys,90,8,Brodie Doherty,Azle,86.86,147.42,83.91,170.1,401.43,Single-ply,SBD,M
Boys,90,9,Nic Garcia,Weatherford,84.19,142.88,102.06,151.95,396.89,Single-ply,SBD,M
Boys,100,1,Jake Bearid,Weatherford,95.71,226.8,108.86,219.99,555.65,Single-ply,SBD,M
Boys,100,2,Tyler Jensen,Azle,96.21,204.12,120.2,174.63,498.95,Single-ply,SBD,M
Boys,100,3,Storm Weidler,Weatherford,92.8,174.63,92.99,167.83,435.45,Single-ply,SBD,M
Boys,100,4,Elijah Dean,Weatherford,99.7,204.12,,172.37,376.48,Single-ply,SD,M
Boys,110,1,Drew Smith,Azle,109.27,235.87,129.27,215.46,580.6,Single-ply,SBD,M
Boys,110,2,Nick Hale,Weatherford,101.42,213.19,127.01,188.24,528.44,Single-ply,SBD,M
Boys,110,3,Jett Reed,White Settlement Brewer,109.41,208.65,115.67,197.31,521.63,Single-ply,SBD,M
Boys,110,4,Lathan Harris,Azle,101.6,181.44,83.91,190.51,455.86,Single-ply,SBD,M
Boys,110,5,Cole Wright,Weatherford,106.44,158.76,97.52,174.63,430.91,Single-ply,SBD,M
Boys,125,1,Brandon Edwards,Weatherford,118.39,235.87,163.29,204.12,603.28,Single-ply,SBD,M
Boys,125,2,Chase Slack,Azle,124.56,197.31,129.27,204.12,530.7,Single-ply,SBD,M
Boys,125,3,Ryan Scruggs,White Settlement Brewer,112.72,210.92,108.86,201.85,521.63,Single-ply,SBD,M
Boys,125,4,Andrew Lutz,Azle,115.89,206.38,122.47,183.7,512.56,Single-ply,SBD,M
Boys,125,5,Ethan Meese,Weatherford,118.21,192.78,92.99,167.83,453.59,Single-ply,SBD,M
Boys,125,6,Louis LaMorte,Azle,115.03,158.76,104.33,163.29,426.38,Single-ply,SBD,M
Boys,125,7,Justin Mayo,White Settlement Brewer,123.56,158.76,90.72,167.83,417.3,Single-ply,SBD,M
Boys,125,8,Joseph Alfaro,White Settlement Brewer,120.93,226.8,,,226.8,Single-ply,S,M
Boys,125+,1,Taylor Bitters,White Settlement Brewer,141.29,272.16,117.93,217.72,607.81,Single-ply,SBD,M
Boys,125+,2,Raylen Smith,Azle,142.11,219.99,111.13,176.9,508.02,Single-ply,SBD,M
Boys,125+,3,Jonathan Renteria,Weatherford,129.27,192.78,124.74,181.44,498.95,Single-ply,SBD,M
Boys,125+,4,James Lochabay,Azle,128,188.24,108.86,185.97,483.08,Single-ply,SBD,M
Boys,125+,5,Dakota Cassity,Weatherford,126.73,158.76,86.18,170.1,415.04,Single-ply,SBD,M
