Division,WeightClassKg,Place,Name,Team,BodyweightKg,Best3SquatKg,Best3BenchKg,Best3DeadliftKg,TotalKg,Equipment,Event,Sex
Boys,52,1,Ricky Lopez,Frisco Centennial,51.35,170.1,90.72,195.04,455.86,Single-ply,SBD,M
Boys,52,2,Jordan Wilkerson,Keller Central,51.53,151.95,79.38,154.22,385.55,Single-ply,SBD,M
Boys,52,3,Ivan Shepherd,Cedar Hill,51.71,133.81,90.72,161.03,385.55,Single-ply,SBD,M
Boys,52,4,Darrian Butler,Denison,51.07,142.88,77.11,154.22,374.21,Single-ply,SBD,M
Boys,52,5,James Ayers,Lucas Lovejoy,44.72,158.76,99.79,106.59,365.14,Single-ply,SBD,M
Boys,52,6,Avery Miller,Denison,49.8,122.47,61.23,142.88,326.59,Single-ply,SBD,M
Boys,52,7,Christian Cabra,Bishop Lynch,51.53,127.01,65.77,127.01,319.78,Single-ply,SBD,M
Boys,52,8,Braxton Barneck,Plano,49.71,113.4,70.31,129.27,312.98,Single-ply,SBD,M
Boys,52,9,Steven Gaut,Keller Central,51.62,97.52,68.04,127.01,292.57,Single-ply,SBD,M
Boys,52,10,Wyatt Self,Keller Central,51.71,83.91,54.43,127.01,265.35,Single-ply,SBD,M
Boys,52,DQ,Bryce Jordan,Keller Central,51.71,90.72,,,,Single-ply,SBD,M
Boys,52,DQ,Ernest Edwards,Cedar Hill,,,,,,Single-ply,SBD,M
Boys,52,DQ,Nic Schnitzius,Dallas Jesuit,,,,,,Single-ply,SBD,M
Boys,56,1,Nate Lunsford,Frisco Wakeland,55.61,188.24,106.59,188.24,483.08,Single-ply,SBD,M
Boys,56,2,Arlind Queriman,Aledo,55.43,172.37,102.06,181.44,455.86,Single-ply,SBD,M
Boys,56,3,Michael Parsons,Bishop Lynch,55.34,158.76,81.65,174.63,415.04,Single-ply,SBD,M
Boys,56,4,Jeremy Cuellar,Denison,55.07,133.81,95.25,181.44,410.5,Single-ply,SBD,M
Boys,56,5,Brady Macaulay,Everman,55.07,136.08,74.84,192.78,403.7,Single-ply,SBD,M
Boys,56,6,Victor Hernandez,Northwest Nelson,55.16,140.61,86.18,154.22,381.02,Single-ply,SBD,M
Boys,56,7,Kevin Weiss,Plano,54.43,129.27,88.45,154.22,371.95,Single-ply,SBD,M
Boys,56,8,Logan Combs,Royse City,55.43,136.08,77.11,156.49,369.68,Single-ply,SBD,M
Boys,56,9,Jabril Clayborne,North Crowley,55.43,124.74,68.04,170.1,362.87,Single-ply,SBD,M
Boys,56,10,Anthony Phimmasone,Fort Worth Boswell,53.61,131.54,68.04,145.15,344.73,Single-ply,SBD,M
Boys,56,11,Jameson Donahue,Frisco Reedy,55.34,136.08,72.57,136.08,344.73,Single-ply,SBD,M
Boys,56,12,Eric Sanders,Hurst Bell,54.88,136.08,63.5,127.01,326.59,Single-ply,SBD,M
Boys,56,DQ,Kevin Cottrell,South Garland,,,,,,Single-ply,SBD,M
Boys,60,1,Wilson Kirkbride,Denison,59.24,190.51,102.06,206.38,498.95,Single-ply,SBD,M
Boys,60,2,Edgar Aguirre,Everman,59.24,158.76,97.52,188.24,444.52,Single-ply,SBD,M
Boys,60,3,Delaun Leflore,Cedar Hill,59.87,161.03,102.06,161.03,424.11,Single-ply,SBD,M
Boys,60,4,Tajohn Livingston,South Garland,59.87,158.76,74.84,188.24,421.84,Single-ply,SBD,M
Boys,60,5,Luke Kirkbride,Denison,57.7,161.03,88.45,167.83,417.3,Single-ply,SBD,M
Boys,60,6,De'Neric Pinson,Mansfield Lake Ridge,58.79,158.76,99.79,158.76,417.3,Single-ply,SBD,M
Boys,60,7,Henry Mortenson,Frisco Liberty,59.51,163.29,81.65,165.56,410.5,Single-ply,SBD,M
Boys,60,8,Gavin Carroll,Frisco Wakeland,59.06,163.29,86.18,154.22,403.7,Single-ply,SBD,M
Boys,60,9,Blake Battle,Frisco Liberty,58.69,145.15,86.18,161.03,392.36,Single-ply,SBD,M
Boys,60,DQ,Nathan Yang,Frisco Heritage,,,,,,Single-ply,SBD,M
Boys,60,DQ,Joseph Cates,Mansfield Summit,,,,,,Single-ply,SBD,M
Boys,60,DQ,Zac Brooks,Lucas Lovejoy,58.79,,,,,Single-ply,SBD,M
Boys,60,DQ,Kyle Humphries,Sherman,57.97,,,,,Single-ply,SBD,M
Boys,67.5,1,Jett Ertle,Keller,66.68,215.46,131.54,206.38,553.38,Single-ply,SBD,M
Boys,67.5,2,Jesse Graham,Aledo,66.32,201.85,131.54,199.58,532.97,Single-ply,SBD,M
Boys,67.5,3,Brandon Blond,Mansfield Timberview,66.13,215.46,108.86,188.24,512.56,Single-ply,SBD,M
Boys,67.5,4,Cooper Wallis,Aledo,66.5,204.12,113.4,192.78,510.29,Single-ply,SBD,M
Boys,67.5,5,Uzo Odu,Cedar Hill,66.22,181.44,111.13,213.19,505.76,Single-ply,SBD,M
Boys,67.5,6,Nicholas Ellis,Prosper,66.22,172.37,117.93,208.65,498.95,Single-ply,SBD,M
Boys,67.5,7,Rytwann Lee,Everman,66.41,181.44,90.72,226.8,498.95,Single-ply,SBD,M
Boys,67.5,8,Dillon Mironti,Frisco Liberty,66.59,185.97,124.74,181.44,492.15,Single-ply,SBD,M
Boys,67.5,9,Daniel Van Amerongen,Dallas Jesuit,66.68,183.7,99.79,195.04,478.54,Single-ply,SBD,M
Boys,67.5,10,E'Darion Williams,Cedar Hill,66.41,185.97,95.25,192.78,474,Single-ply,SBD,M
Boys,67.5,11,Houston Johnson,North Crowley,66.04,181.44,83.91,197.31,462.66,Single-ply,SBD,M
Boys,67.5,12,Joseph Terrance,Mansfield Timberview,63.78,163.29,127.01,167.83,458.13,Single-ply,SBD,M
Boys,75,1,George Kennard,Frisco Wakeland,73.21,233.6,147.42,240.4,621.42,Single-ply,SBD,M
Boys,75,2,Steven Mancillas,Dallas Jesuit,73.57,235.87,136.08,229.06,601.01,Single-ply,SBD,M
Boys,75,3,Justin Gipson,Frisco Reedy,73.3,226.8,138.35,224.53,589.67,Single-ply,SBD,M
Boys,75,4,Noah Moreno,Keller Central,74.03,249.48,133.81,206.38,589.67,Single-ply,SBD,M
Boys,75,5,Juan DeLeon,Everman,73.39,215.46,124.74,226.8,566.99,Single-ply,SBD,M
Boys,75,6,Max Carlile,Plano,74.03,226.8,129.27,199.58,555.65,Single-ply,SBD,M
Boys,75,7,Curtis Sanders,Cedar Hill,74.48,197.31,133.81,224.53,555.65,Single-ply,SBD,M
Boys,75,8,David Mugwanya,Keller Central,74.3,219.99,99.79,226.8,546.58,Single-ply,SBD,M
Boys,75,9,Stanley Coleman,Keller Central,74.84,226.8,142.88,174.63,544.31,Single-ply,SBD,M
Boys,75,10,Jordan McNeely,Azle,73.48,199.58,129.27,206.38,535.24,Single-ply,SBD,M
Boys,75,11,Grayson Porsche,Aledo,73.94,192.78,124.74,215.46,532.97,Single-ply,SBD,M
Boys,75,12,Devante Clayton,Sherman,74.16,192.78,122.47,215.46,530.7,Single-ply,SBD,M
Boys,75,DQ,Michael Wallace,Sherman,,,,,,Single-ply,SBD,M
Boys,82.5,1,Jorden Craig,Hurst Bell,79.56,233.6,154.22,231.33,619.15,Single-ply,SBD,M
Boys,82.5,2,Andres Perez,Plano,81.56,242.67,140.61,229.06,612.35,Single-ply,SBD,M
Boys,82.5,3,Brian Aguilar,Everman,79.74,238.14,117.93,249.48,605.55,Single-ply,SBD,M
Boys,82.5,4,Shane Harris,Keller Central,81.28,235.87,151.95,204.12,591.94,Single-ply,SBD,M
Boys,82.5,5,Michael Walker #4,Little Elm,77.38,204.12,136.08,238.14,578.33,Single-ply,SBD,M
Boys,82.5,6,Tre Lyday,Denison,82.1,226.8,124.74,226.8,578.33,Single-ply,SBD,M
Boys,82.5,7,Isaac Williams,Frisco Centennial,80.74,235.87,117.93,210.92,564.72,Single-ply,SBD,M
Boys,82.5,8,Caleb Scott,Cedar Hill,80.2,229.06,127.01,199.58,555.65,Single-ply,SBD,M
Boys,82.5,9,Presley Luce,Bishop Lynch,79.38,188.24,133.81,231.33,553.38,Single-ply,SBD,M
Boys,82.5,10,Peyton Hetrick,Weatherford,81.47,219.99,115.67,217.72,553.38,Single-ply,SBD,M
Boys,82.5,11,Steven Lucas,Mansfield Timberview,81.65,204.12,131.54,217.72,553.38,Single-ply,SBD,M
Boys,82.5,DQ,Zack Luna,Keller,82.1,206.38,138.35,204.12,,Single-ply,SBD,M
Boys,90,1,Braden Robertson,Weatherford,84.01,256.28,163.29,231.33,650.91,Single-ply,SBD,M
Boys,90,2,Jordan Odulio,Dallas Jesuit,86.09,260.82,142.88,242.67,646.37,Single-ply,SBD,M
Boys,90,3,Evan Jackson,Dallas Jesuit,87.82,238.14,140.61,256.28,635.03,Single-ply,SBD,M
Boys,90,4,Brenden Buggage,Fort Worth Western Hills,87.91,247.21,147.42,240.4,635.03,Single-ply,SBD,M
Boys,90,5,Hunter Hutchins,Northwest Nelson,88,238.14,138.35,258.55,635.03,Single-ply,SBD,M
Boys,90,6,Damon Williams,Fort Worth Boswell,85.82,231.33,140.61,249.48,621.42,Single-ply,SBD,M
Boys,90,7,Blake Raines,White Settlement Brewer,89.54,217.72,167.83,229.06,614.62,Single-ply,SBD,M
Boys,90,8,Chris Ponder,McKinney,89.36,226.8,149.69,231.33,607.81,Single-ply,SBD,M
Boys,90,9,Roy Goins,Little Elm,87.63,226.8,136.08,226.8,589.67,Single-ply,SBD,M
Boys,90,10,Jameel Mainor,Fort Worth Chisholm Trail,87,219.99,127.01,226.8,573.79,Single-ply,SBD,M
Boys,90,11,Corey Hartfield,North Crowley,88.81,233.6,95.25,240.4,569.26,Single-ply,SBD,M
Boys,90,12,Landon Sleeper,Keller Central,89.63,215.46,124.74,199.58,539.77,Single-ply,SBD,M
Boys,100,1,Mauricio Rojas,Carrollton Turner,99.34,272.16,151.95,249.48,673.58,Single-ply,SBD,M
Boys,100,2,Jake Beaird,Weatherford,93.17,272.16,158.76,240.4,671.32,Single-ply,SBD,M
Boys,100,3,Kade Ashley,Lucas Lovejoy,99.79,254.01,181.44,208.65,644.1,Single-ply,SBD,M
Boys,100,4,Cruz Villegas,Everman,97.07,249.48,129.27,256.28,635.03,Single-ply,SBD,M
Boys,100,5,Derrick Munoz,Saginaw,99.06,244.94,151.95,219.99,616.89,Single-ply,SBD,M
Boys,100,6,Tyler Kindig,Wichita Falls Rider,97.89,240.4,154.22,217.72,612.35,Single-ply,SBD,M
Boys,100,7,Cailon Washington,North Crowley,99.06,233.6,136.08,242.67,612.35,Single-ply,SBD,M
Boys,100,8,Jaylon Sparks,Everman,95.16,226.8,133.81,226.8,587.4,Single-ply,SBD,M
Boys,100,DQ,Travis Williams,Fort Worth Chisholm Trail,99.34,247.21,147.42,,,Single-ply,SBD,M
Boys,100,DQ,Zach Helton,Plano,91.99,251.74,113.4,,,Single-ply,SBD,M
Boys,100,DQ,Sean Payne,Keller,96.89,,,,,Single-ply,SBD,M
Boys,100,DQ,Ryan Lara,Frisco Independence,92.44,249.48,147.42,,,Single-ply,SBD,M
Boys,110,1,Tanner Oliver,Keller Timber Creek,105.87,260.82,167.83,260.82,689.46,Single-ply,SBD,M
Boys,110,2,Jaylon Manigo,Mansfield Timberview,102.97,249.48,163.29,254.01,666.78,Single-ply,SBD,M
Boys,110,3,TJ Williams,South Garland,101.97,249.48,158.76,249.48,657.71,Single-ply,SBD,M
Boys,110,4,Ezekiel Veal,Everman,108.95,240.4,154.22,263.08,657.71,Single-ply,SBD,M
Boys,110,5,Kerry Coleman,Fort Worth Arlington Heights,104.6,229.06,161.03,235.87,625.96,Single-ply,SBD,M
Boys,110,6,Matt Hawk,Frisco Independence,103.42,249.48,147.42,226.8,623.69,Single-ply,SBD,M
Boys,110,7,Jaime Cortez,Royse City,107.32,272.16,129.27,222.26,623.69,Single-ply,SBD,M
Boys,110,8,Obed Guerrero,Carrollton Turner,104.78,265.35,151.95,204.12,621.42,Single-ply,SBD,M
Boys,110,9,David Partida,Rockwall-Heath,106.32,238.14,147.42,217.72,603.28,Single-ply,SBD,M
Boys,110,10,Malyk Newsome,Everman,102.33,226.8,129.27,242.67,598.74,Single-ply,SBD,M
Boys,110,11,Matt Girard,Keller Central,107.14,249.48,138.35,204.12,591.94,Single-ply,SBD,M
Boys,110,DQ,Colton Reinhardt,Saginaw,,,,,,Single-ply,SBD,M
Boys,110,DQ,Nathan Omayebu,Sherman,104.69,256.28,,,,Single-ply,SBD,M
Boys,110,DQ,Milton Williams,Crowley,106.87,,,,,Single-ply,SBD,M
Boys,125,1,Lazaro Garcia,South Garland,115.94,290.3,158.76,249.48,698.53,Single-ply,SBD,M
Boys,125,2,Quincy Warren,Everman,113.76,226.8,147.42,283.5,657.71,Single-ply,SBD,M
Boys,125,3,Andrew Lutz,Azle,119.29,278.96,151.95,215.46,646.37,Single-ply,SBD,M
Boys,125,4,Zach Zeman,Frisco Wakeland,121.74,254.01,142.88,226.8,623.69,Single-ply,SBD,M
Boys,125,5,Nick Hunter,Plano,115.76,249.48,158.76,208.65,616.89,Single-ply,SBD,M
Boys,125,6,Boomer Warren,Northwest Eaton,114.94,242.67,145.15,222.26,610.08,Single-ply,SBD,M
Boys,125,7,Joseph Torres,Hurst Bell,122.47,240.4,156.49,213.19,610.08,Single-ply,SBD,M
Boys,125,8,Justin Watson,Fort Worth Boswell,123.47,238.14,145.15,215.46,598.74,Single-ply,SBD,M
Boys,125,9,Jaden Webb,Royse City,117.39,226.8,133.81,226.8,587.4,Single-ply,SBD,M
Boys,125,10,Azeez Yussuf,Mansfield Summit,121.02,215.46,142.88,226.8,585.13,Single-ply,SBD,M
Boys,125,DQ,Benjamin Calhoun,Mansfield Timberview,,,,,,Single-ply,SBD,M
Boys,125,DQ,Marcus Ramsey,McKinney,122.47,272.16,147.42,,,Single-ply,SBD,M
Boys,125,DQ,Blake Culver,Garland Rowlett,119.39,,,,,Single-ply,SBD,M
Boys,125,DQ,Zach Saldana,Frisco Independence,122.2,274.42,,,,Single-ply,SBD,M
Boys,125+,1,Caleb Reed,Everman,132.72,317.51,188.24,278.96,784.71,Single-ply,SBD,M
Boys,125+,2,Nicholas Carbajhal,Carrollton Turner,135.08,294.84,197.31,240.4,732.55,Single-ply,SBD,M
Boys,125+,3,Jack Davis #1,Richardson Pearce,130.82,249.48,188.24,251.74,689.46,Single-ply,SBD,M
Boys,125+,4,Jake Allsbrooks,Fort Worth Boswell,146.69,324.32,161.03,204.12,689.46,Single-ply,SBD,M
Boys,125+,5,Jaylin Hendrix,Everman,139.16,249.48,181.44,249.48,680.39,Single-ply,SBD,M
Boys,125+,6,Lazerrick Bowie,Hurst Bell,137.62,294.84,136.08,238.14,669.05,Single-ply,SBD,M
Boys,125+,7,Tucker Rowland,Frisco Heritage,132.36,238.14,188.24,222.26,648.64,Single-ply,SBD,M
Boys,125+,8,Dalton Allen,Dallas Jesuit,138.98,276.69,165.56,204.12,646.37,Single-ply,SBD,M
Boys,125+,9,Damon Lippert,Sherman,140.7,260.82,165.56,215.46,641.83,Single-ply,SBD,M
Boys,125+,DQ,Dontryll Dever,Wichita Falls,,,,,,Single-ply,SBD,M
Boys,125+,DQ,Josh Schnitker,Sherman,145.97,,,,,Single-ply,SBD,M
Boys,125+,DQ,Josh Jackson,Rockwall-Heath,127.01,294.84,154.22,,,Single-ply,SBD,M
Boys,125+,DQ,Charles Ederson,Keller Fossil Ridge,131.27,,,,,Single-ply,SBD,M
