Place,Name,Sex,Event,Division,WeightClassKg,Equipment,BirthYear,State,BodyweightKg,Squat1Kg,Squat2Kg,Squat3Kg,Best3SquatKg,Bench1Kg,Bench2Kg,Bench3Kg,Best3BenchKg,Deadlift1Kg,Deadlift2Kg,Deadlift3Kg,Best3DeadliftKg,TotalKg,Age,BirthDate
1,Georgia Christodoulou,F,SBD,R-JR,63,Raw,1998,MI,62.5,90,95,-100,95,62.5,-65,,62.5,127.5,140,145,145,302.5,,
1,Elyse Velasquez,F,SBD,R-O,57,Raw,2002,MI,55.1,97.5,105,107.5,107.5,52.5,57.5,-60,57.5,135,142.5,-145,142.5,307.5,,
1,Georgia Christodoulou,F,SBD,R-O,63,Raw,1998,MI,62.5,90,95,-100,95,62.5,-65,,62.5,127.5,140,145,145,302.5,,
1,Annie Petiprin,F,SBD,R-O,72,Raw,2003,MI,69.8,-102.5,-102.5,102.5,102.5,37.5,45,52.5,52.5,102.5,125,-135,125,280,,
2,Marcella Petiprin,F,SBD,R-O,72,Raw,2002,MI,70.4,-82.5,82.5,-92.5,82.5,32.5,-42.5,-42.5,32.5,102.5,-112.5,112.5,112.5,227.5,,
3,Summer Diehl,F,SBD,R-O,72,Raw,2002,MI,66.6,70,75,80,80,42.5,47.5,50,50,85,90,-95,90,220,,
1,Lillii Armstrong,F,SBD,R-O,84,Raw,2002,MI,80.6,-100,102.5,105,105,60,65,67.5,67.5,120,135,-145,135,307.5,,
1,Jenna Hillier,F,SBD,R-O,84+,Raw,2002,MI,90.7,-112.5,-112.5,112.5,112.5,42.5,47.5,-52.5,47.5,112.5,125,-135,125,285,,
1,Annie Petiprin,F,SBD,R-T1,72,Raw,2003,MI,69.8,-102.5,-102.5,102.5,102.5,37.5,45,52.5,52.5,102.5,125,-135,125,280,,
1,Elyse Velasquez,F,SBD,R-T2,57,Raw,2002,MI,55.1,97.5,105,107.5,107.5,52.5,57.5,-60,57.5,135,142.5,-145,142.5,307.5,,
1,Marcella Petiprin,F,SBD,R-T2,72,Raw,2002,MI,70.4,-82.5,82.5,-92.5,82.5,32.5,-42.5,-42.5,32.5,102.5,-112.5,112.5,112.5,227.5,,
2,Summer Diehl,F,SBD,R-T2,72,Raw,2002,MI,66.6,70,75,80,80,42.5,47.5,50,50,85,90,-95,90,220,,
1,Lillii Armstrong,F,SBD,R-T2,84,Raw,2002,MI,80.6,-100,102.5,105,105,60,65,67.5,67.5,120,135,-145,135,307.5,,
1,Jenna Hillier,F,SBD,R-T2,84+,Raw,2002,MI,90.7,-112.5,-112.5,112.5,112.5,42.5,47.5,-52.5,47.5,112.5,125,-135,125,285,,
1,Cody King,M,SBD,R-O,74,Raw,2001,MI,67.7,70,75,80,80,47.5,57.5,60,60,110,125,-137.5,125,265,,
1,Aiden Gaedcke,M,SBD,R-O,83,Raw,2002,MI,78.3,90,110,120,120,77.5,97.5,-107.5,97.5,152.5,172.5,180,180,397.5,,
1,Cody King,M,SBD,R-T2,74,Raw,2001,MI,67.7,70,75,80,80,47.5,57.5,60,60,110,125,-137.5,125,265,,
1,Aiden Gaedcke,M,SBD,R-T2,83,Raw,2002,MI,78.3,90,110,120,120,77.5,97.5,-107.5,97.5,152.5,172.5,180,180,397.5,,
