Division,WeightClassKg,Place,Name,Team,BodyweightKg,Best3SquatKg,Best3BenchKg,Best3DeadliftKg,TotalKg,Equipment,Event,Sex
Boys,52,1,Preston Mann,Amarillo Highland Park,50.89,111.13,61.23,108.86,281.23,Single-ply,SBD,M
Boys,52,2,Peter Nguyen #2,Amarillo Highland Park,49.99,102.06,56.7,113.4,272.16,Single-ply,SBD,M
Boys,56,1,Kevin Nguyen #8,Amarillo Highland Park,54.88,149.69,81.65,176.9,408.23,Single-ply,SBD,M
Boys,56,2,Billy Lee,Amarillo Highland Park,55.25,127.01,81.65,151.95,360.61,Single-ply,SBD,M
Boys,56,3,Corbin Byrd,Dalhart,52.71,113.4,65.77,111.13,290.3,Single-ply,SBD,M
Boys,56,DQ,Bryan Nguyen,Amarillo Highland Park,54.61,,,,,Single-ply,SBD,M
Boys,60,1,Landon Johnson,Amarillo Highland Park,59.42,156.49,92.99,158.76,408.23,Single-ply,SBD,M
Boys,60,2,Ceasar Luther,Perryton,59.24,136.08,88.45,147.42,371.95,Single-ply,SBD,M
Boys,60,3,Matthew Cano,Perryton,58.33,124.74,88.45,147.42,360.61,Single-ply,SBD,M
Boys,67.5,1,Christian Maldonado,Canyon Randall,65.95,204.12,142.88,188.24,535.24,Single-ply,SBD,M
Boys,67.5,2,Alex Lugo,Perryton,65.68,188.24,122.47,197.31,508.02,Single-ply,SBD,M
Boys,67.5,3,Luis Uruchutu,Canyon Randall,65.95,147.42,99.79,176.9,424.11,Single-ply,SBD,M
Boys,67.5,4,Zach Walser,Canyon Randall,66.59,165.56,97.52,149.69,412.77,Single-ply,SBD,M
Boys,67.5,5,Ryan Bornemeier,Dalhart,67.09,120.2,68.04,147.42,335.66,Single-ply,SBD,M
Boys,75,1,Garron Weber,Borger,73.39,206.38,142.88,240.4,589.67,Single-ply,SBD,M
Boys,75,2,Noah Martinez,Dalhart,72.67,226.8,129.27,217.72,573.79,Single-ply,SBD,M
Boys,75,3,Chris Lara,Bushland,74.03,183.7,97.52,204.12,485.34,Single-ply,SBD,M
Boys,75,4,Josue Becerril,Perryton,69.85,163.29,92.99,183.7,439.98,Single-ply,SBD,M
Boys,75,5,Logan Terrell,Bushland,72.12,113.4,95.25,165.56,374.21,Single-ply,SBD,M
Boys,75,6,Matt Anders,Amarillo Highland Park,69.58,111.13,70.31,136.08,317.51,Single-ply,SBD,M
Boys,82.5,1,Kodiak Martinez,Dalhart,78.2,183.7,79.38,190.51,453.59,Single-ply,SBD,M
Boys,82.5,2,Edgar Granados,Perryton,76.57,145.15,86.18,183.7,415.04,Single-ply,SBD,M
Boys,82.5,3,Carson Smith,Dalhart,79.02,174.63,92.99,147.42,415.04,Single-ply,SBD,M
Boys,82.5,4,Carson Ward,Borger,79.83,136.08,61.23,124.74,322.05,Single-ply,SBD,M
Boys,82.5,DQ,Sean Meadows,Bushland,80.92,165.56,,,,Single-ply,SBD,M
Boys,90,1,Antonio Covarrubias,Perryton,88.9,199.58,113.4,210.92,523.9,Single-ply,SBD,M
Boys,90,2,Caleb Frausto,Canyon Randall,88.9,170.1,136.08,204.12,510.29,Single-ply,SBD,M
Boys,90,3,Angel Luther,Perryton,87.91,183.7,120.2,190.51,494.42,Single-ply,SBD,M
Boys,90,4,Jackson Espe,Bushland,83.55,124.74,74.84,142.88,342.46,Single-ply,SBD,M
Boys,100,1,Blaine McGregor,Amarillo Highland Park,90.45,226.8,136.08,226.8,589.67,Single-ply,SBD,M
Boys,100,2,Uriel Hernandez,Perryton,97.16,229.06,124.74,215.46,569.26,Single-ply,SBD,M
Boys,100,3,Caden Lafever,Canyon Randall,95.53,204.12,142.88,215.46,562.45,Single-ply,SBD,M
Boys,100,4,Mario Becerril,Perryton,95.98,183.7,122.47,179.17,485.34,Single-ply,SBD,M
Boys,100,5,Jay Ramirez,Perryton,97.7,181.44,97.52,183.7,462.66,Single-ply,SBD,M
Boys,100,6,Augustine Moreno,Amarillo Highland Park,91.99,170.1,104.33,179.17,453.59,Single-ply,SBD,M
Boys,110,1,Gustavo Navarrete,Perryton,106.14,272.16,154.22,249.48,675.85,Single-ply,SBD,M
Boys,110,2,Jesus Cervantes,Perryton,107.59,224.53,124.74,210.92,560.19,Single-ply,SBD,M
Boys,110,3,Zach Zaccardo,Bushland,105.14,215.46,127.01,192.78,535.24,Single-ply,SBD,M
Boys,110,4,Shelby Sanderson,Canyon Randall,104.78,170.1,127.01,199.58,496.68,Single-ply,SBD,M
Boys,110,5,Rey Heredia,Borger,106.59,208.65,117.93,163.29,489.88,Single-ply,SBD,M
Boys,110,6,Patrick Cheney,Amarillo Highland Park,101.51,165.56,108.86,183.7,458.13,Single-ply,SBD,M
Boys,110,7,Ubaldo Tarango,Perryton,101.7,181.44,102.06,174.63,458.13,Single-ply,SBD,M
Boys,110,8,Ryan Alonzo,Dalhart,103.6,188.24,90.72,176.9,455.86,Single-ply,SBD,M
Boys,125,1,Casey Stewart,Dalhart,124.01,290.3,142.88,204.12,637.3,Single-ply,SBD,M
Boys,125,2,Frank Gallegos,Dalhart,116.3,208.65,136.08,183.7,528.44,Single-ply,SBD,M
Boys,125,3,Brendan Herring,Dalhart,117.75,174.63,92.99,172.37,439.98,Single-ply,SBD,M
Boys,125,DQ,Kendall Ptacnik,Canyon Randall,114.03,,,,,Single-ply,SBD,M
Boys,125+,1,Tytus Williams,Borger,131.54,249.48,142.88,199.58,591.94,Single-ply,SBD,M
Boys,125+,2,Isaiah Canas,Dalhart,125.78,195.04,102.06,217.72,514.83,Single-ply,SBD,M
Boys,125+,DQ,Jordan Applegate,Amarillo Highland Park,139.98,195.04,120.2,,,Single-ply,SBD,M
