Division,WeightClassKg,Place,Name,Team,BodyweightKg,Best3SquatKg,Best3BenchKg,Best3DeadliftKg,TotalKg,Equipment,Event,Sex
Boys,52,1,Diego Gallegos,Alvin,51.71,154.22,102.06,183.7,439.98,Single-ply,SBD,M
Boys,52,2,Nathan Acosta,Pearland Dawson,51.26,129.27,52.16,124.74,306.17,Single-ply,SBD,M
Boys,52,3,Alfredo Barron,Splendora,49.44,99.79,54.43,122.47,276.69,Single-ply,SBD,M
Boys,52,4,Christian Franklin,La Marque,51.71,99.79,61.23,113.4,274.42,Single-ply,SBD,M
Boys,52,5,Rayshon Godley,Texas City,51.71,83.91,49.9,104.33,238.14,Single-ply,SBD,M
Boys,52,6,John Maggiolino,Dickinson,48.08,90.72,47.63,90.72,229.06,Single-ply,SBD,M
Boys,56,1,Carlos Salazar,Manvel,55.79,165.56,90.72,165.56,421.84,Single-ply,SBD,M
Boys,56,2,Jordan Trevino,Bay City,53.71,117.93,72.57,154.22,344.73,Single-ply,SBD,M
Boys,56,3,Adarius Jones,Manvel,53.16,102.06,74.84,142.88,319.78,Single-ply,SBD,M
Boys,56,4,Tim Wilson,Conroe Caney Creek,54.43,102.06,61.23,136.08,299.37,Single-ply,SBD,M
Boys,56,5,Salvador Bahena,Beaumont Ozen,55.61,106.59,72.57,117.93,297.1,Single-ply,SBD,M
Boys,56,6,Tomas Ibarra,Texas City,54.16,102.06,74.84,111.13,288.03,Single-ply,SBD,M
Boys,56,DQ,Wyatt Dudley,Santa Fe,55.61,111.13,,147.42,,Single-ply,SBD,M
Boys,60,1,Matthew Longoria,Alvin,56.79,181.44,127.01,185.97,494.42,Single-ply,SBD,M
Boys,60,2,Jessy Yanez,Channelview,59.06,165.56,81.65,183.7,430.91,Single-ply,SBD,M
Boys,60,3,Orlando Moreno,Bay City,59.87,154.22,92.99,149.69,396.89,Single-ply,SBD,M
Boys,60,4,Zane Havel,Bay City,59.87,151.95,90.72,142.88,385.55,Single-ply,SBD,M
Boys,60,5,August Williams,Conroe Oak Ridge,59.87,131.54,97.52,136.08,365.14,Single-ply,SBD,M
Boys,60,DQ,Isaac Vargas,Manvel,59.87,,,,,Single-ply,SBD,M
Boys,60,DQ,Ashton Mashaw,Conroe Caney Creek,56.88,145.15,,156.49,,Single-ply,SBD,M
Boys,60,DQ,Austin Gurka,Santa Fe,59.87,102.06,,102.06,,Single-ply,SBD,M
Boys,60,DQ,Marcus Mayonga,Pearland,59.87,151.95,,140.61,,Single-ply,SBD,M
Boys,60,DQ,Pierre Bynum,Port Arthur Memorial,59.87,113.4,,124.74,,Single-ply,SBD,M
Boys,67.5,1,Pablo Cavazos,Dickinson,66.22,233.6,108.86,226.8,569.26,Single-ply,SBD,M
Boys,67.5,2,Gin Ivey,Conroe Oak Ridge,65.32,176.9,106.59,208.65,492.15,Single-ply,SBD,M
Boys,67.5,3,LaQuentin Cravens,Texas City,66.77,170.1,102.06,181.44,453.59,Single-ply,SBD,M
Boys,67.5,4,Caleb Jackson,Huffman Hargrave,67.13,149.69,102.06,181.44,433.18,Single-ply,SBD,M
Boys,67.5,5,Nathan Erickson,Splendora,62.6,161.03,99.79,165.56,426.38,Single-ply,SBD,M
Boys,67.5,6,Brandon Whitoski,Conroe Oak Ridge,67.13,158.76,95.25,167.83,421.84,Single-ply,SBD,M
Boys,67.5,7,Santiago Hernandez,Texas City,62.32,154.22,104.33,158.76,417.3,Single-ply,SBD,M
Boys,67.5,8,Mark Banda,Alvin,64.14,136.08,83.91,161.03,381.02,Single-ply,SBD,M
Boys,67.5,9,Ty Broussard,Alvin,65.91,147.42,88.45,142.88,378.75,Single-ply,SBD,M
Boys,67.5,10,Cameron Charles,Channelview,65.86,106.59,81.65,167.83,356.07,Single-ply,SBD,M
Boys,67.5,11,Isaac Sweed,La Marque,65.32,127.01,68.04,156.49,351.53,Single-ply,SBD,M
Boys,67.5,12,Ricardo Alaniz,Alvin,62.41,117.93,63.5,151.95,333.39,Single-ply,SBD,M
Boys,67.5,13,Devin Ford,Texas City,62.51,124.74,70.31,136.08,331.12,Single-ply,SBD,M
Boys,67.5,14,Tommy Nguyen,Galveston Ball,61.51,117.93,61.23,142.88,322.05,Single-ply,SBD,M
Boys,67.5,DQ,Russell Pickney,La Marque,63.41,,,163.29,,Single-ply,SBD,M
Boys,67.5,DQ,Michael Murray,Manvel,62.69,79.38,,142.88,,Single-ply,SBD,M
Boys,67.5,DQ,Nathan Gruver,Huffman Hargrave,66.13,117.93,,129.27,,Single-ply,SBD,M
Boys,67.5,DQ,Deric Lowe,Beaumont Ozen,65.59,,90.72,124.74,,Single-ply,SBD,M
Boys,75,1,Jared Hernandez,Texas City,74.84,254.01,145.15,240.4,639.57,Single-ply,SBD,M
Boys,75,2,Dawson Nobriga,Channelview,73.21,195.04,136.08,190.51,521.63,Single-ply,SBD,M
Boys,75,3,Marian Diaz,Dickinson,73.03,192.78,102.06,192.78,487.61,Single-ply,SBD,M
Boys,75,4,Ryan Hoffurt,Splendora,73.48,161.03,122.47,190.51,474,Single-ply,SBD,M
Boys,75,5,Jonathan Pesina,Bay City,72.26,181.44,108.86,181.44,471.74,Single-ply,SBD,M
Boys,75,6,Giovanni Porretto,Dickinson,74.84,167.83,124.74,174.63,467.2,Single-ply,SBD,M
Boys,75,7,Colby Mouton,Dickinson,74.84,170.1,102.06,183.7,455.86,Single-ply,SBD,M
Boys,75,8,Kaylen Manzi,Huffman Hargrave,73.57,154.22,102.06,163.29,419.57,Single-ply,SBD,M
Boys,75,9,Jacob Barrera,Alvin,73.66,149.69,97.52,172.37,419.57,Single-ply,SBD,M
Boys,75,10,Taylor Johnson,Huffman Hargrave,73.48,161.03,99.79,151.95,412.77,Single-ply,SBD,M
Boys,75,11,Kaelin Redmon,Beaumont Ozen,69.67,145.15,90.72,172.37,408.23,Single-ply,SBD,M
Boys,75,12,Efren Ramirez,Alvin,71.58,151.95,102.06,149.69,403.7,Single-ply,SBD,M
Boys,75,13,Ryan LaGarce,Conroe Oak Ridge,69.85,142.88,97.52,158.76,399.16,Single-ply,SBD,M
Boys,75,14,Mason Avery,Texas City,73.62,156.49,83.91,158.76,399.16,Single-ply,SBD,M
Boys,75,15,Kyle Palenik,Splendora,74.39,158.76,74.84,165.56,399.16,Single-ply,SBD,M
Boys,75,16,Michael Pena,Pasadena Memorial,73.48,129.27,95.25,172.37,396.89,Single-ply,SBD,M
Boys,75,17,Daniel Fernandez,Alvin,69.76,142.88,92.99,145.15,381.02,Single-ply,SBD,M
Boys,75,18,Nick Sauer,Texas City,68.58,145.15,83.91,149.69,378.75,Single-ply,SBD,M
Boys,75,19,Collin Wellman,Pasadena Memorial,68.31,147.42,70.31,158.76,376.48,Single-ply,SBD,M
Boys,75,20,Fermin Moreno,Dickinson,68.95,129.27,83.91,151.95,365.14,Single-ply,SBD,M
Boys,75,21,Daniel Taylor,Alvin,67.59,124.74,90.72,136.08,351.53,Single-ply,SBD,M
Boys,75,22,John Eccles,Huffman Hargrave,73.84,120.2,83.91,133.81,337.93,Single-ply,SBD,M
Boys,75,DQ,Alex Palacios,Conroe Caney Creek,74.84,,,,,Single-ply,SBD,M
Boys,75,DQ,Byron Aragon,Galveston Ball,74.84,102.06,70.31,111.13,,Single-ply,SBD,M
Boys,75,DQ,Kylin Louis,Beaumont Ozen,71.58,124.74,,147.42,,Single-ply,SBD,M
Boys,75,DQ,Amado Vasquez,Santa Fe,74.21,,111.13,192.78,,Single-ply,SBD,M
Boys,82.5,1,Beau Ramos,Texas City,76.2,219.99,120.2,208.65,548.85,Single-ply,SBD,M
Boys,82.5,2,Triston Amason,Dickinson,77.11,185.97,108.86,226.8,521.63,Single-ply,SBD,M
Boys,82.5,3,Donovan Leach,Splendora,82.1,149.69,122.47,195.04,467.2,Single-ply,SBD,M
Boys,82.5,4,Curtis Poindexter,Dickinson,78.93,172.37,117.93,174.63,464.93,Single-ply,SBD,M
Boys,82.5,5,Alfredo Arenas,Manvel,79.65,192.78,95.25,174.63,462.66,Single-ply,SBD,M
Boys,82.5,6,Brandon Caldera,Pasadena Memorial,79.65,167.83,108.86,163.29,439.98,Single-ply,SBD,M
Boys,82.5,7,Cohl Cruz,Conroe Oak Ridge,80.74,142.88,108.86,167.83,419.57,Single-ply,SBD,M
Boys,82.5,8,Martevious Howard,Manvel,78.38,145.15,102.06,154.22,401.43,Single-ply,SBD,M
Boys,82.5,9,Trevor Hughes,Manvel,81.28,154.22,90.72,156.49,401.43,Single-ply,SBD,M
Boys,82.5,10,Hayden Barron,Alvin,76.57,131.54,92.99,149.69,374.21,Single-ply,SBD,M
Boys,82.5,11,Elijah Ruiz,Alvin,79.65,106.59,92.99,161.03,360.61,Single-ply,SBD,M
Boys,82.5,12,Nick Taylor,Huffman Hargrave,80.01,142.88,74.84,136.08,353.8,Single-ply,SBD,M
Boys,82.5,13,Keagan Wilson,Huffman Hargrave,81.56,68.04,65.77,136.08,269.89,Single-ply,SBD,M
Boys,82.5,DQ,Elias Salas,Dickinson,82.1,,,,,Single-ply,SBD,M
Boys,82.5,DQ,Josea Eustupinan,Beaumont Ozen,82.1,,,,,Single-ply,SBD,M
Boys,82.5,DQ,Eduardo Maury,Beaumont Ozen,82.1,,,,,Single-ply,SBD,M
Boys,82.5,DQ,Devin Higgins,Huffman Hargrave,79.38,145.15,,172.37,,Single-ply,SBD,M
Boys,90,1,Dylan Bates,Conroe Oak Ridge,86.64,254.01,149.69,249.48,653.17,Single-ply,SBD,M
Boys,90,2,Sterling Winzor,Beaumont Ozen,85.18,204.12,131.54,231.33,566.99,Single-ply,SBD,M
Boys,90,3,Darren Jones,Alvin,89.54,197.31,122.47,226.8,546.58,Single-ply,SBD,M
Boys,90,4,Seth Hearen,Dickinson,89.81,219.99,113.4,204.12,537.51,Single-ply,SBD,M
Boys,90,5,Blake Stillwell,Alvin,86.36,176.9,97.52,231.33,505.76,Single-ply,SBD,M
Boys,90,6,Yvan Andrew,Texas City,89.18,165.56,117.93,219.99,503.49,Single-ply,SBD,M
Boys,90,7,Octavio Galicia,Dickinson,89.81,195.04,108.86,195.04,498.95,Single-ply,SBD,M
Boys,90,8,Anival Villatoro,Pasadena Memorial,87.27,181.44,102.06,213.19,496.68,Single-ply,SBD,M
Boys,90,9,Seth Nance,Galveston Ball,83.55,181.44,115.67,185.97,483.08,Single-ply,SBD,M
Boys,90,10,Alejandro Cortina,Channelview,85.18,197.31,92.99,192.78,483.08,Single-ply,SBD,M
Boys,90,11,Michael McVay,Santa Fe,88.72,181.44,111.13,181.44,474,Single-ply,SBD,M
Boys,90,12,Blake Villareal,Texas City,85.64,174.63,117.93,174.63,467.2,Single-ply,SBD,M
Boys,90,13,Ellis Muldrow,Dickinson,89.81,190.51,88.45,185.97,464.93,Single-ply,SBD,M
Boys,90,14,Gage Slaughter,Santa Fe,88.45,174.63,102.06,181.44,458.13,Single-ply,SBD,M
Boys,90,15,Jason Navarro,Huffman Hargrave,89.81,174.63,90.72,170.1,435.45,Single-ply,SBD,M
Boys,90,16,Jaqualen Crook,Port Arthur Memorial,83.37,149.69,106.59,158.76,415.04,Single-ply,SBD,M
Boys,90,17,Devon Turner,La Marque,88,129.27,81.65,181.44,392.36,Single-ply,SBD,M
Boys,90,18,Fabian Hall,Port Arthur Memorial,85.55,138.35,88.45,154.22,381.02,Single-ply,SBD,M
Boys,90,19,JaTavious Adams,La Marque,84.82,117.93,86.18,129.27,333.39,Single-ply,SBD,M
Boys,90,DQ,Derrick Middleton,La Marque,82.33,,,,,Single-ply,SBD,M
Boys,90,DQ,Brent Patton,Conroe Caney Creek,89.81,,,,,Single-ply,SBD,M
Boys,90,DQ,Deryck Villareal,Huffman Hargrave,84.01,142.88,,124.74,,Single-ply,SBD,M
Boys,90,DQ,Malik Holmes,La Marque,84.82,179.17,,192.78,,Single-ply,SBD,M
Boys,90,DQ,Mitchell Johnson,Pearland,89.45,174.63,108.86,,,Single-ply,SBD,M
Boys,90,DQ,Darian Zeigler,Texas City,88.18,185.97,113.4,,,Single-ply,SBD,M
Boys,90,DQ,Mark Bowden,Port Arthur Memorial,82.74,111.13,,113.4,,Single-ply,SBD,M
Boys,100,1,Joe Thomas,Beaumont Ozen,99.16,272.16,142.88,251.74,666.78,Single-ply,SBD,M
Boys,100,2,Daniel Parr,Dickinson,99.79,254.01,136.08,226.8,616.89,Single-ply,SBD,M
Boys,100,3,Brandon Mckean,Conroe Caney Creek,99.79,226.8,120.2,226.8,573.79,Single-ply,SBD,M
Boys,100,4,Christian Reza,Beaumont Ozen,96.89,222.26,124.74,224.53,571.53,Single-ply,SBD,M
Boys,100,5,Jose Rodriguez,Dickinson,97.07,226.8,129.27,208.65,564.72,Single-ply,SBD,M
Boys,100,6,John Rinehart,Texas City,99.25,219.99,120.2,183.7,523.9,Single-ply,SBD,M
Boys,100,7,Gildardo Bernal,Channelview,99.06,204.12,117.93,195.04,517.1,Single-ply,SBD,M
Boys,100,8,Joseph Greer,Dickinson,97.07,176.9,136.08,183.7,496.68,Single-ply,SBD,M
Boys,100,9,David Alsip,Conroe Caney Creek,93.26,188.24,106.59,190.51,485.34,Single-ply,SBD,M
Boys,100,10,Nakoven Lewis,Port Arthur Memorial,99.79,183.7,113.4,158.76,455.86,Single-ply,SBD,M
Boys,100,11,Claude Conner,Beaumont Ozen,95.25,142.88,104.33,206.38,453.59,Single-ply,SBD,M
Boys,100,12,Alfred Berry,Port Arthur Memorial,99.79,183.7,102.06,149.69,435.45,Single-ply,SBD,M
Boys,100,13,Justin Stein,Alvin,92.53,158.76,102.06,170.1,430.91,Single-ply,SBD,M
Boys,100,14,Malik Blake,Port Arthur Memorial,98.16,170.1,97.52,158.76,426.38,Single-ply,SBD,M
Boys,100,15,Tyler Russ,Alvin,94.08,167.83,92.99,156.49,417.3,Single-ply,SBD,M
Boys,100,16,Marcus Fowler,Bay City,92.35,154.22,97.52,149.69,401.43,Single-ply,SBD,M
Boys,100,17,Camren Duncan,Alvin,99.25,154.22,79.38,149.69,383.29,Single-ply,SBD,M
Boys,100,18,Cavion McCoy,La Marque,90.72,117.93,81.65,147.42,347,Single-ply,SBD,M
Boys,100,19,Deandre Kindred,Conroe Oak Ridge,90.26,129.27,61.23,129.27,319.78,Single-ply,SBD,M
Boys,100,DQ,Beau McCrary,Huffman Hargrave,92.62,133.81,,149.69,,Single-ply,SBD,M
Boys,110,1,Gavin Franklin,Conroe Oak Ridge,108.14,238.14,163.29,258.55,659.98,Single-ply,SBD,M
Boys,110,2,Derek Parish,Pearland,107.59,265.35,165.56,226.8,657.71,Single-ply,SBD,M
Boys,110,3,Marcus Garza,Conroe Caney Creek,108.91,265.35,147.42,226.8,639.57,Single-ply,SBD,M
Boys,110,4,Prince Flye,Bay City,103.96,226.8,147.42,226.8,601.01,Single-ply,SBD,M
Boys,110,5,Tyler Ray,Santa Fe,104.05,226.8,129.27,201.85,557.92,Single-ply,SBD,M
Boys,110,6,Nathaniel Sandoval,Conroe Caney Creek,109.36,224.53,138.35,192.78,555.65,Single-ply,SBD,M
Boys,110,7,Pierce Tupa,Pearland,108.05,197.31,142.88,201.85,542.04,Single-ply,SBD,M
Boys,110,8,Zach Battle,Bay City,108.23,188.24,117.93,215.46,521.63,Single-ply,SBD,M
Boys,110,9,Roberto Varvelo,Channelview,102.24,204.12,102.06,206.38,512.56,Single-ply,SBD,M
Boys,110,10,Nick Touch,Alvin,104.78,188.24,115.67,181.44,485.34,Single-ply,SBD,M
Boys,110,11,Braydon Williams,Port Arthur Memorial,104.6,192.78,102.06,183.7,478.54,Single-ply,SBD,M
Boys,110,12,Dylan Carter,Pasadena Memorial,108.41,167.83,97.52,199.58,464.93,Single-ply,SBD,M
Boys,110,13,Tristin Spoerle,Conroe Oak Ridge,100.7,192.78,90.72,174.63,458.13,Single-ply,SBD,M
Boys,110,14,Neearrius Withers,Beaumont Ozen,109.77,158.76,113.4,183.7,455.86,Single-ply,SBD,M
Boys,110,15,Noah Young,Huffman Hargrave,101.97,149.69,113.4,181.44,444.52,Single-ply,SBD,M
Boys,110,16,Joseph Rodriguez,Alvin,104.42,170.1,104.33,170.1,444.52,Single-ply,SBD,M
Boys,110,17,Orlando Zamarripa,Bay City,101.6,163.29,79.38,183.7,426.38,Single-ply,SBD,M
Boys,110,18,Samuel Stephens,Port Arthur Memorial,106.32,156.49,102.06,165.56,424.11,Single-ply,SBD,M
Boys,110,19,Anthony Richard,Santa Fe,105.96,170.1,92.99,151.95,415.04,Single-ply,SBD,M
Boys,110,20,Zach Gray,Huffman Hargrave,108.86,142.88,83.91,158.76,385.55,Single-ply,SBD,M
Boys,110,21,Darius Richmond,Conroe Oak Ridge,108.86,158.76,102.06,,260.82,Single-ply,SB,M
Boys,110,DQ,Kenneth Cobb,La Marque,108.86,102.06,,158.76,,Single-ply,SBD,M
Boys,110,DQ,Luis Delgado,Texas City,106.78,181.44,,183.7,,Single-ply,SBD,M
Boys,125,1,Niko Afuhaamango,Pearland,117.12,238.14,156.49,240.4,635.03,Single-ply,SBD,M
Boys,125,2,Max Cerino,Channelview,123.83,210.92,136.08,224.53,571.53,Single-ply,SBD,M
Boys,125,3,Robert Torres,Texas City,119.43,208.65,140.61,201.85,551.11,Single-ply,SBD,M
Boys,125,4,DaJuan McMillan,Port Arthur Memorial,123.74,226.8,102.06,215.46,544.31,Single-ply,SBD,M
Boys,125,5,Fidel Rodriguez,Bay City,112.94,208.65,136.08,192.78,537.51,Single-ply,SBD,M
Boys,125,6,Tyler Williams,Pearland Dawson,123.2,204.12,108.86,215.46,528.44,Single-ply,SBD,M
Boys,125,7,Brandon Rangel,Dickinson,118.84,206.38,102.06,210.92,519.36,Single-ply,SBD,M
Boys,125,8,Aaron Mata,Alvin,114.76,192.78,127.01,195.04,514.83,Single-ply,SBD,M
Boys,125,9,Sean Dillon,Galveston Ball,116.66,183.7,117.93,185.97,487.61,Single-ply,SBD,M
Boys,125,10,Sincere Haynesworth,Pearland,115.03,181.44,102.06,183.7,467.2,Single-ply,SBD,M
Boys,125,11,Bralan Spriggins,Dickinson,117.03,183.7,92.99,183.7,460.4,Single-ply,SBD,M
Boys,125,12,Jose Silva,Channelview,116.12,158.76,108.86,181.44,449.06,Single-ply,SBD,M
Boys,125,13,Cruz Barcenas,Huffman Hargrave,121.2,163.29,108.86,176.9,449.06,Single-ply,SBD,M
Boys,125,14,Herman McElroy,Port Arthur Memorial,121.65,188.24,102.06,151.95,442.25,Single-ply,SBD,M
Boys,125,15,Byron Henderson Jr,Channelview,114.03,149.69,115.67,158.76,424.11,Single-ply,SBD,M
Boys,125,16,Walter Macker,Pearland,109.95,156.49,88.45,170.1,415.04,Single-ply,SBD,M
Boys,125,17,Sterling Mack,La Marque,112.49,138.35,90.72,145.15,374.21,Single-ply,SBD,M
Boys,125,18,Cameron Barr,Conroe Caney Creek,112.76,136.08,83.91,129.27,349.27,Single-ply,SBD,M
Boys,125,DQ,Jaylen Smith,Conroe Caney Creek,124.74,,,,,Single-ply,SBD,M
Boys,125,DQ,Gus Davis,Huffman Hargrave,124.74,,,,,Single-ply,SBD,M
Boys,125,DQ,Jose Fourquet,Port Arthur Memorial,124.74,,,,,Single-ply,SBD,M
Boys,125+,1,Max Casas,Pearland Dawson,136.98,278.96,147.42,242.67,669.05,Single-ply,SBD,M
Boys,125+,2,Brent Holmes,Conroe Caney Creek,133.9,281.23,142.88,226.8,650.91,Single-ply,SBD,M
Boys,125+,3,Jordan Crawford,Pearland,154.22,238.14,158.76,233.6,630.49,Single-ply,SBD,M
Boys,125+,4,Thomas Ratka,Alvin,131.72,226.8,149.69,231.33,607.81,Single-ply,SBD,M
Boys,125+,5,Bernard Childs,Channelview,149.5,260.82,142.88,226.8,630.49,Single-ply,SBD,M
Boys,125+,6,Jose Reta,Dickinson,125.19,217.72,129.27,226.8,573.79,Single-ply,SBD,M
Boys,125+,7,Tyler Johnson,Conroe Oak Ridge,130.18,181.44,102.06,238.14,521.63,Single-ply,SBD,M
Boys,125+,8,Noah Barajas,Alvin,143.34,201.85,117.93,188.24,508.02,Single-ply,SBD,M
Boys,125+,9,Dawson Murdock,Pearland,126.46,179.17,120.2,195.04,494.42,Single-ply,SBD,M
Boys,125+,10,Casy Duhon,Conroe Oak Ridge,131.09,204.12,106.59,183.7,494.42,Single-ply,SBD,M
Boys,125+,11,David Mendiola,Pasadena Memorial,130.63,181.44,108.86,190.51,480.81,Single-ply,SBD,M
Boys,125+,12,Walter Gamble,Dickinson,138.8,158.76,81.65,172.37,412.77,Single-ply,SBD,M
Boys,125+,13,Michael Flores,Conroe Caney Creek,126.01,133.81,65.77,122.47,322.05,Single-ply,SBD,M
Boys,125+,DQ,Khalil James-Ware,La Marque,141.52,,,,,Single-ply,SBD,M
Boys,125+,DQ,Ronald Williams,Texas City,129.27,,136.08,192.78,,Single-ply,SBD,M
