Place,Name,Sex,Event,Division,Equipment,BirthYear,State,WeightClassKg,BodyweightKg,Squat1Kg,Squat2Kg,Squat3Kg,Best3SquatKg,Bench1Kg,Bench2Kg,Bench3Kg,Best3BenchKg,Deadlift1Kg,Deadlift2Kg,Deadlift3Kg,Best3DeadliftKg,TotalKg
1,Erin Walterman,F,SBD,O,Single-ply,1982,WI,63,61.5,165,175,182.5,182.5,115,-122.5,122.5,122.5,165,175,182.5,182.5,487.5
1,Mitchell Gibson,M,SBD,O,Single-ply,1999,WI,74,72.4,265,277.5,290,290,125,135,-140,135,257.5,262.5,-267.5,262.5,687.5
1,Pete Nees,M,SBD,O,Single-ply,1984,WI,105,100.6,320,327.5,337.5,337.5,192.5,202.5,-207.5,202.5,265,275,285,285,825
1,Nicholas Scannell,M,SBD,O,Single-ply,1996,WI,93,92,-265,275,287.5,287.5,200,210,220,220,265,277.5,,277.5,785
1,Sara Rodock,F,SBD,O,Single-ply,1981,WI,84,83.3,202.5,210,217.5,217.5,150,157.5,-162.5,157.5,152.5,162.5,-170,162.5,537.5
2,Emma Ramsey,F,SBD,O,Single-ply,1998,WI,63,62.2,145,-157.5,157.5,157.5,82.5,-87.5,-87.5,82.5,147.5,157.5,165,165,405
1,Brian Naidicz,M,SBD,O,Single-ply,1987,WI,120,119.3,262.5,275,285,285,190,-215,-215,190,242.5,260,-267.5,260,735
1,Scott Schwartz,M,SBD,R-O,Raw,1990,IL,93,92.8,240,255,262.5,262.5,175,180,-182.5,180,295,307.5,315,315,757.5
1,Jordanne Panton,F,SBD,R-O,Raw,1999,WI,63,62.9,135,,,135,72.5,77.5,80,80,177.5,190,200,200,415
1,Sterling Walker,M,SBD,R-O,Raw,1991,IL,59,58,162.5,170,-175,170,102.5,107.5,-110,107.5,207.5,-215,-215,207.5,485
2,Jacob Czaplewski,M,SBD,R-O,Raw,1999,WI,93,91.4,245,252.5,-257.5,252.5,160,170,-180,170,220,232.5,237.5,237.5,660
3,Michael Branda,M,SBD,R-O,Raw,1991,WI,93,87.5,210,225,235,235,-132.5,142.5,-150,142.5,245,260,-275,260,637.5
1,Kenneth Kalish,M,SBD,R-O,Raw,1992,IL,120+,181.5,237.5,255,270,270,195,205,-215,205,260,280,-297.5,280,755
1,Christian Miller,M,SBD,R-O,Raw,1991,IL,83,81.9,205,215,220,220,135,140,-145,140,242.5,-255,-255,242.5,602.5
1,Jessica Rangel,F,SBD,R-O,Raw,1988,WI,52,51.6,120,127.5,-132.5,127.5,65,-70,-70,65,122.5,-130,-130,122.5,315
4,Sergio Castaneda,M,SBD,R-O,Raw,1990,IL,93,93,210,217.5,227.5,227.5,150,-157.5,-157.5,150,242.5,250,-260,250,627.5
1,Alice Lee,F,SBD,R-O,Raw,1996,IL,84,72.5,152.5,-167.5,167.5,167.5,67.5,72.5,-75,72.5,160,-177.5,-177.5,160,400
1,Seth Morrison,M,SBD,R-O,Raw,1998,WI,74,74,195,202.5,,202.5,110,117.5,-122.5,117.5,195,207.5,-215,207.5,527.5
5,Israel Linares,M,SBD,R-O,Raw,1996,IL,93,87.5,187.5,200,210,210,115,122.5,130,130,210,222.5,227.5,227.5,567.5
1,Anthony DiPerna,M,SBD,R-O,Raw,1994,WI,120,118.3,195,205,215,215,165,175,182.5,182.5,220,225,230,230,627.5
1,Ashley Stough,F,SBD,R-O,Raw,1986,IL,57,56.4,97.5,105,-112.5,105,65,-70,-70,65,115,125,135,135,305
1,Kaycee Galitz,F,SBD,R-O,Raw,1993,WI,84+,113.2,155,165,170,170,80,82.5,-85,82.5,152.5,167.5,-175,167.5,420
2,Charles Ford,M,SBD,R-O,Raw,1994,WI,74,73.1,155,165,172.5,172.5,97.5,105,-110,105,165,177.5,190,190,467.5
2,Paul Treske,M,SBD,R-O,Raw,1990,WI,83,79.9,162.5,175,-180,175,107.5,112.5,-120,112.5,187.5,195,205,205,492.5
3,Robert Scholler,M,SBD,R-O,Raw,1994,WI,83,82.4,-147.5,155,-165,155,102.5,107.5,112.5,112.5,197.5,207.5,210,210,477.5
2,Bobbie Bush,F,SBD,R-O,Raw,1994,WI,57,54.6,80,95,-105,95,45,50,52.5,52.5,85,102.5,115,115,262.5
2,Mollie Touve,F,SBD,R-O,Raw,1992,IL,63,60.3,92.5,102.5,-107.5,102.5,52.5,55,-57.5,55,102.5,117.5,-125,117.5,275
3,Taylor Reid,F,SBD,R-O,Raw,1996,WI,63,60.7,82.5,87.5,92.5,92.5,52.5,57.5,-60,57.5,102.5,115,122.5,122.5,272.5
2,Deanna Reilly,F,SBD,R-O,Raw,1964,WI,84,82.3,85,92.5,100,100,67.5,72.5,-75,72.5,140,150,160,160,332.5
2,Jennifer Schaal,F,SBD,R-O,Raw,1977,MN,84+,111.9,-132.5,132.5,137.5,137.5,75,77.5,-80,77.5,135,140,145,145,360
4,Emily McNair,F,SBD,R-O,Raw,1994,WI,63,60.1,82.5,87.5,92.5,92.5,42.5,45,-47.5,45,110,120,-125,120,257.5
2,Louise Vogel,F,SBD,R-O,Raw,1965,WI,52,50.5,60,-65,67.5,67.5,37.5,40,-45,40,105,-120,-122.5,105,212.5
4,Jean Rosenwald,M,SBD,R-O,Raw,1965,WI,83,74.2,85,90,-95,90,55,60,-65,60,117.5,-125,125,125,275
DQ,Jacqueline Martin,F,SBD,R-O,Raw,1973,WI,84+,101.5,-85,-85,-85,,55,57.5,-60,57.5,125,-132.5,132.5,132.5,
DQ,Joseph Baginski,M,SBD,R-O,Raw,1990,IL,120,111.8,-245,-255,-255,,155,165,-170,165,260,272.5,280,280,
DQ,Kurt Millard,M,SBD,R-O,Raw,1965,WI,105,103.5,-140,-140,-140,,95,102.5,110,110,170,182.5,-185,182.5,
