Place,Name,State,WeightClassKg,BodyweightKg,Age,Best3SquatKg,Best3BenchKg,Best3DeadliftKg,TotalKg,Sex,Division,Equipment,Event,Bench4Kg
1,Alexia Zuber,SC,60,57.2,14,77.5,57.5,102.5,237.5,F,Juniors 13-15,Raw,SBD,60
1,Gabriela Angulo,FL,60,59.6,23,110,57.5,120,287.5,F,Juniors 20-23,Raw,SBD,
DQ,Audrey Hinson,SC,60,59.3,22,,52.5,100,,F,Juniors 20-23,Raw,SBD,
1,Devin Worth,SC,67.5,65.5,22,125,67.5,130,322.5,F,Juniors 20-23,Raw,SBD,
1,Carlina Mcafoose,SC,90+,95.8,21,95,70,137.5,302.5,F,Juniors 20-23,Raw,SBD,
1,Jamie Lee,SC,67.5,66,35,137.5,85,175,397.5,F,Open,Raw,SBD,
2,Amanda Gascon,SC,67.5,67.1,28,125,67.5,147.5,340,F,Open,Raw,SBD,
3,Desiree Savarese,GA,67.5,67.5,37,125,65,135,325,F,Open,Raw,SBD,
4,Maddie Garrett,SC,67.5,65.5,26,92.5,52.5,137.5,282.5,F,Open,Raw,SBD,
1,Kristin Lander,SC,75,72.2,37,145,77.5,172.5,395,F,Open,Raw,SBD,
2,Emelia Ezernack,SC,75,71.4,28,102.5,55,122.5,280,F,Open,Raw,SBD,
1,Ashley Everette,SC,82.5,80.8,31,127.5,107.5,167.5,402.5,F,Open,Raw,SBD,
1,Stacey Koury,GA,90,88.2,38,107.5,52.5,132.5,292.5,F,Open,Raw,SBD,
1,Chelsea Burgess,SC,90+,145.1,31,105,60,135,300,F,Open,Raw,SBD,
1,Jamie Lee,SC,67.5,66,35,137.5,85,175,397.5,F,Submasters 35-39,Raw,SBD,
2,Julia Tollman,SC,67.5,65.9,38,92.5,50,105,247.5,F,Submasters 35-39,Raw,SBD,
1,Kristin Lander,SC,75,72.2,37,145,77.5,172.5,395,F,Submasters 35-39,Raw,SBD,
1,Jamie Henderson,SC,82.5,80.5,35,85,52.5,102.5,240,F,Submasters 35-39,Raw,SBD,
1,Stacey Koury,GA,90,88.2,38,107.5,52.5,132.5,292.5,F,Submasters 35-39,Raw,SBD,
1,Oscar Galvan,NC,75,71.6,20,187.5,150,227.5,565,M,Juniors 20-23,Raw,SBD,
1,Dominic Rowden,NC,82.5,80.3,21,240,142.5,272.5,655,M,Juniors 20-23,Raw,SBD,
1,Alex Collette,SC,90,89.3,22,200,142.5,227.5,570,M,Juniors 20-23,Raw,SBD,
2,Brentyn Jones,NC,90,90,21,177.5,127.5,237.5,542.5,M,Juniors 20-23,Raw,SBD,
1,Joseph Abrahams,SC,67.5,63.6,33,125,92.5,160,377.5,M,Open,Raw,SBD,
1,Oscar Galvan,NC,75,71.6,20,187.5,150,227.5,565,M,Open,Raw,SBD,
1,Nick McCouch,GA,82.5,82.2,28,245,160,285,690,M,Open,Raw,SBD,
2,James Stewart,SC,82.5,80.6,25,172.5,130,195,497.5,M,Open,Raw,SBD,
3,Daniel Kwak,SC,82.5,78.2,26,160,107.5,200,467.5,M,Open,Raw,SBD,
1,Scott Sives,NC,90,90,25,227.5,150,220,597.5,M,Open,Raw,SBD,
2,Alex Collette,SC,90,89.3,22,200,142.5,227.5,570,M,Open,Raw,SBD,
3,Clark Werts,SC,90,88.8,53,137.5,97.5,175,410,M,Open,Raw,SBD,
1,Nathan Kemper,SC,100,98.2,28,150,105,192.5,447.5,M,Open,Raw,SBD,
1,Chad Delaney,SC,110,105.8,29,237.5,165,260,662.5,M,Open,Raw,SBD,
2,Gary Mobley,SC,110,106.7,34,182.5,125,200,507.5,M,Open,Raw,SBD,
1,Steven Carozza,NC,125,125,28,292.5,227.5,297.5,817.5,M,Open,Raw,SBD,
2,Stefan Mcbride,SC,125,115.8,27,225,157.5,227.5,610,M,Open,Raw,SBD,
1,Brandon Nelson,SC,140,137.3,32,248.5,147.5,282.5,678.5,M,Open,Raw,SBD,
1,Brandon Zuber,SC,82.5,77.5,42,125,100,180,405,M,Masters 40-44,Raw,SBD,
1,Ryan Delman,SC,90,88,42,230,147.5,257.5,635,M,Masters 40-44,Raw,SBD,
2,John Bowman,SC,90,87.4,42,145,115,215,475,M,Masters 40-44,Raw,SBD,
1,Clark Werts,SC,90,88.8,53,137.5,97.5,175,410,M,Masters 50-54,Raw,SBD,
1,Kelvin Sykes,GA,110,108.7,42,165,137.5,220,522.5,M,Masters 40-44,Raw,SBD,
1,Amber Malchow,SC,60,59.6,24,115,60,137.5,312.5,F,Open,Wraps,SBD,
1,Scott Harlow,NC,125,125,22,342.5,182.5,295,820,M,Juniors 20-23,Wraps,SBD,
1,Jason Julian,NC,82.5,81.5,24,195,140,222.5,557.5,M,Open,Wraps,SBD,
1,Jared Wilcox,SC,90,88.1,28,160,95,187.5,442.5,M,Open,Wraps,SBD,
1,Stephen Day,SC,100,99,34,235,140,262.5,637.5,M,Open,Wraps,SBD,
1,Joshua Payton-Dennis,SC,140+,160.9,29,350,217.5,252.5,820,M,Open,Wraps,SBD,
1,David Dunn,NC,100,93.5,37,205,100,197.5,502.5,M,Submasters 35-39,Wraps,SBD,
1,Tony Smith,SC,110,110,40,110,107.5,172.5,390,M,Masters 40-44,Wraps,SBD,
1,Kyle Padgett,SC,90,89.2,29,,130,,130,M,Open,Raw,B,
DQ,Austin Chawporn,SC,110,101.6,21,,,,,M,Open,Raw,B,
1,Peter Marston,SC,110,100.7,71,,97.5,,97.5,M,Masters 70-74,Raw,B,
1,Alex Collette,SC,90,89.3,22,,,227.5,227.5,M,Juniors 20-23,Raw,D,
1,Alex Collette,SC,90,89.3,22,,,227.5,227.5,M,Open,Raw,D,
2,Kyle Padgett,SC,90,89.2,29,,,220,220,M,Open,Raw,D,
1,Jake Henderson,SC,125,123.7,29,,,312.5,312.5,M,Open,Multi-ply,D,
DQ,Ashley Thomas,SC,44,,26,,,125,,F,Open,Raw,BD,
1,Megan Marie Early-Soppa,SC,90,87.5,30,,72.5,147.5,220,F,Open,Raw,BD,
1,Kimberly Crossley,SC,90,88.7,35,,65,127.5,192.5,F,Submasters 35-39,Raw,BD,
1,Kyle Padgett,SC,90,89.2,29,,130,220,350,M,Open,Raw,BD,
1,James Montgomery,SC,110,100.3,26,,207.5,295,502.5,M,Open,Raw,BD,
2,Wesley McCarter,,110,106.5,33,,187.5,240,427.5,M,Open,Raw,BD,
DQ,Austin Chawporn,SC,110,101.6,21,,,227.5,,M,Open,Raw,BD,
